file_name,entity,ent_type,matching LCSH,match score
First_Draft_Treatment,DeVinney/Blue,ORG,,
First_Draft_Treatment,Draft,ORG,Draft,100
First_Draft_Treatment,SNCC,ORG,,
First_Draft_Treatment,PRIZE,ORG,,
First_Draft_Treatment,Emerging Voices,WORK_OF_ART,,
First_Draft_Treatment,Washington,GPE,Anti-war demonstrations--Washington (D.C.),90
First_Draft_Treatment,Hartin Luther King's,PERSON,,
First_Draft_Treatment,H. L. KING,PERSON,,
First_Draft_Treatment,NARRATOR,ORG,,
First_Draft_Treatment,Hartin Luther King,PERSON,,
First_Draft_Treatment,America,GPE,African American authors,90
First_Draft_Treatment,American,NORP,African American authors,90
First_Draft_Treatment,America,GPE,African American authors,90
First_Draft_Treatment,American,NORP,African American authors,90
First_Draft_Treatment,American,NORP,African American authors,90
First_Draft_Treatment,American,NORP,African American authors,90
First_Draft_Treatment,the Nation of Islam,ORG,,
First_Draft_Treatment,CORE,ORG,"King, Coretta Scott, 1927-2006",90
First_Draft_Treatment,Urban League,ORG,,
First_Draft_Treatment,Civil Rights Congress,ORG,,
First_Draft_Treatment,NAACP,ORG,,
First_Draft_Treatment,James Farmer,PERSON,,
First_Draft_Treatment,Albert Cleague,ORG,,
First_Draft_Treatment,Adam Clayton Powell,PERSON,,
First_Draft_Treatment,New York,GPE,"Bedford-Stuyvesant (New York, N.Y.)",90
First_Draft_Treatment,the Nation of Islam,ORG,,
First_Draft_Treatment,The Hate That Hate Produced,WORK_OF_ART,,
First_Draft_Treatment,MIKE WALLACE,PERSON,"Wallace, Mike, 1918-",95
First_Draft_Treatment,Negroes,ORG,,
First_Draft_Treatment,Negro,ORG,,
First_Draft_Treatment,the United States,GPE,,
First_Draft_Treatment,Negro American Muslims,NORP,,
First_Draft_Treatment,Muslims,NORP,African American Muslims,90
First_Draft_Treatment,MIKE WALLACE,PERSON,"Wallace, Mike, 1918-",95
First_Draft_Treatment,Muslims,NORP,African American Muslims,90
First_Draft_Treatment,Louis Lomax,PERSON,,
First_Draft_Treatment,Malcolm,PERSON,"X, Malcolm, 1925-1965",90
First_Draft_Treatment,Elijah,NORP,"Elijah Muhammad, 1897-1975",90
First_Draft_Treatment,Elijah,NORP,"Elijah Muhammad, 1897-1975",90
First_Draft_Treatment,Muslims,NORP,African American Muslims,90
First_Draft_Treatment,Lou,PERSON,"McDuffie, Louis",90
First_Draft_Treatment,MIKE WALLACE,PERSON,"Wallace, Mike, 1918-",95
First_Draft_Treatment,Louis Lomax,PERSON,,
First_Draft_Treatment,Malcolm X,PERSON,"X, Malcolm, 1925-1965",90
First_Draft_Treatment,Elijah Muhammed,PERSON,,
First_Draft_Treatment,Elijah Muhammed,PERSON,,
First_Draft_Treatment,Islamic,NORP,,
First_Draft_Treatment,Adam,PERSON,,
First_Draft_Treatment,Eve,PERSON,"Dunkley, Steve",90
First_Draft_Treatment,Bible,WORK_OF_ART,,
First_Draft_Treatment,Johnson Hinton a Nation of Muslim,ORG,,
First_Draft_Treatment,Fruit of Islam,ORG,,
First_Draft_Treatment,Malcolm,PERSON,"X, Malcolm, 1925-1965",90
First_Draft_Treatment,Hinton,ORG,,
First_Draft_Treatment,JAMES HICKS,PERSON,,
First_Draft_Treatment,Malcolm,PERSON,"X, Malcolm, 1925-1965",90
First_Draft_Treatment,Muslims,NORP,African American Muslims,90
First_Draft_Treatment,Malcolm,PERSON,"X, Malcolm, 1925-1965",90
First_Draft_Treatment,Malcolm X,PERSON,"X, Malcolm, 1925-1965",90
First_Draft_Treatment,the Nation of Islam,ORG,,
First_Draft_Treatment,Mecca,GPE,,
First_Draft_Treatment,Atlantic City,GPE,"Democratic National Convention (1964 : Atlantic City, N.J.)",90
First_Draft_Treatment,New Jersey,GPE,Riots--New Jersey--Newark,90
First_Draft_Treatment,The Mississippi Freedom Democratic Party,ORG,Mississippi Freedom Democratic Party,95
First_Draft_Treatment,Mississippi,LOC,Civil rights demonstrations--Mississippi--Jackson,90
First_Draft_Treatment,the Democratiic National Convention,ORG,,
First_Draft_Treatment,the Democratic Party,ORG,,
First_Draft_Treatment,STOKELY CARMICHAEL,PERSON,"Carmichael, Stokely, 1941-1998",90
First_Draft_Treatment,Mississippi,GPE,Civil rights demonstrations--Mississippi--Jackson,90
First_Draft_Treatment,MFDP,FAC,,
First_Draft_Treatment,Democratic,NORP,"Democratic National Convention (1964 : Atlantic City, N.J.)",90
First_Draft_Treatment,SNCC,ORG,,
First_Draft_Treatment,Chaney,ORG,"Chaney, James Earl, 1943-1964",90
First_Draft_Treatment,Goodman,ORG,"Goodman, Andrew, 1943-1964",90
First_Draft_Treatment,Schwerner,ORG,"Schwerner, Michael Henry, 1939-1964",90
First_Draft_Treatment,SNCC,ORG,,
First_Draft_Treatment,Jim Foreman,PERSON,,
First_Draft_Treatment,Harry Belafonte,PERSON,"Belafonte, Harry, 1927-",95
First_Draft_Treatment,the United States,GPE,,
First_Draft_Treatment,Guinea,GPE,,
First_Draft_Treatment,Guinean,NORP,,
First_Draft_Treatment,West Africa,GPE,,
First_Draft_Treatment,Atlantic City,GPE,"Democratic National Convention (1964 : Atlantic City, N.J.)",90
First_Draft_Treatment,the Mississippi Freedom Democratic Party,ORG,Mississippi Freedom Democratic Party,95
First_Draft_Treatment,Washington,GPE,Anti-war demonstrations--Washington (D.C.),90
First_Draft_Treatment,Africa,LOC,African American authors,90
First_Draft_Treatment,Lewis,PERSON,"Lewis, John, 1940-2020",90
First_Draft_Treatment,Donald Harris,PERSON,,
First_Draft_Treatment,Malcolm X,PERSON,"X, Malcolm, 1925-1965",90
First_Draft_Treatment,Nairobi,GPE,,
First_Draft_Treatment,Malcolm X,PERSON,"X, Malcolm, 1925-1965",90
First_Draft_Treatment,American,NORP,African American authors,90
First_Draft_Treatment,African,NORP,African American authors,90
First_Draft_Treatment,Washington,GPE,Anti-war demonstrations--Washington (D.C.),90
First_Draft_Treatment,Mecca,GPE,,
First_Draft_Treatment,Malcolm X,PERSON,"X, Malcolm, 1925-1965",90
First_Draft_Treatment,SNCC,GPE,,
First_Draft_Treatment,Malcolm,PERSON,"X, Malcolm, 1925-1965",90
First_Draft_Treatment,Pan-Africanist,NORP,,
First_Draft_Treatment,SNCC,GPE,,
First_Draft_Treatment,Malcolm X,PERSON,"X, Malcolm, 1925-1965",90
First_Draft_Treatment,SNCC,ORG,,
First_Draft_Treatment,Malcolm X,PERSON,"X, Malcolm, 1925-1965",90
First_Draft_Treatment,MFDP Harlem,ORG,,
First_Draft_Treatment,Fannie Lou Hamer,PERSON,"Hamer, Fannie Lou, 1917-1977",90
First_Draft_Treatment,SNCC,ORG,,
First_Draft_Treatment,McComb,GPE,,
First_Draft_Treatment,Mississippi,GPE,Civil rights demonstrations--Mississippi--Jackson,90
First_Draft_Treatment,New York,GPE,"Bedford-Stuyvesant (New York, N.Y.)",90
First_Draft_Treatment,Miss,LOC,Mayersville (Miss.),90
First_Draft_Treatment,African,NORP,African American authors,90
First_Draft_Treatment,Selma,GPE,,
First_Draft_Treatment,Alabama,GPE,,
First_Draft_Treatment,Malcolm Xis,PERSON,,
First_Draft_Treatment,New York City,GPE,,
First_Draft_Treatment,SNCC,ORG,,
First_Draft_Treatment,JOHN LEWIS,PERSON,"Lewis, John, 1940-2020",90
First_Draft_Treatment,Malcolm XJ,PERSON,,
First_Draft_Treatment,Negro,ORG,,
First_Draft_Treatment,Africa,LOC,African American authors,90
First_Draft_Treatment,John Lewis,PERSON,"Lewis, John, 1940-2020",90
First_Draft_Treatment,Cleve Sellers,PERSON,"Sellers, Cleveland, 1944-",90
First_Draft_Treatment,South African,NORP,,
First_Draft_Treatment,New York,GPE,"Bedford-Stuyvesant (New York, N.Y.)",90
First_Draft_Treatment,Afro-Americans,NORP,,
First_Draft_Treatment,Africa,LOC,African American authors,90
First_Draft_Treatment,Southwest Africa,GPE,,
First_Draft_Treatment,Mississippi,GPE,Civil rights demonstrations--Mississippi--Jackson,90
First_Draft_Treatment,Alabama,GPE,,
First_Draft_Treatment,Harlem USA,ORG,,
First_Draft_Treatment,Selma,NORP,,
First_Draft_Treatment,Montgomery,PERSON,"Selma to Montgomery Rights March (1965 : Selma, Ala.)",90
First_Draft_Treatment,Birmingham,GPE,,
First_Draft_Treatment,Martin Luther King,PERSON,"King, Martin Luther (Dr.), Jr., 1929-1968",90
First_Draft_Treatment,America,GPE,African American authors,90
First_Draft_Treatment,Vietnam,GPE,"Vietnam War, 1961-1975",90
First_Draft_Treatment,Andrew Young,PERSON,"Young, Andrew, 1932-",95
First_Draft_Treatment,Hosea Williams,PERSON,,
First_Draft_Treatment,SCLC,ORG,,
First_Draft_Treatment,King,PERSON,Cooking,90
First_Draft_Treatment,the Selma-Montgomery March,ORG,,
First_Draft_Treatment,Selma,NORP,,
First_Draft_Treatment,King,PERSON,Cooking,90
First_Draft_Treatment,King,PERSON,Cooking,90
First_Draft_Treatment,Harlem,LOC,,
First_Draft_Treatment,Adam Clayton Powell,PERSON,,
First_Draft_Treatment,New York City,GPE,,
First_Draft_Treatment,Philadelphia,GPE,,
First_Draft_Treatment,NAACP,ORG,,
First_Draft_Treatment,Cecil B. Moore,PERSON,,
First_Draft_Treatment,Vietnam,GPE,"Vietnam War, 1961-1975",90
First_Draft_Treatment,SCLC,NORP,,
First_Draft_Treatment,Johnson,PERSON,"Johnson, Albert",90
First_Draft_Treatment,the Voting Rights Act,LAW,Voting,90
First_Draft_Treatment,LBJ,ORG,,
First_Draft_Treatment,VRA,ORG,,
First_Draft_Treatment,Watts,LOC,,
First_Draft_Treatment,Los Angeles,GPE,,
First_Draft_Treatment,Johnson,PERSON,"Johnson, Albert",90
First_Draft_Treatment,Johnson,PERSON,"Johnson, Albert",90
First_Draft_Treatment,Johnson,PERSON,"Johnson, Albert",90
First_Draft_Treatment,Vietnam,GPE,"Vietnam War, 1961-1975",90
First_Draft_Treatment,Watts,LOC,,
First_Draft_Treatment,Lowndes County,GPE,Lowndes County (Ala.),95
First_Draft_Treatment,Alabama,GPE,,
First_Draft_Treatment,John Hulett,PERSON,"Hulett, John",95
First_Draft_Treatment,Stokely Carmichael,PERSON,"Carmichael, Stokely, 1941-1998",90
First_Draft_Treatment,SNCC,ORG,,
First_Draft_Treatment,first,ORDINAL,,
First_Draft_Treatment,John Hulett,PERSON,"Hulett, John",95
First_Draft_Treatment,first,ORDINAL,,
First_Draft_Treatment,Lowndes County,GPE,Lowndes County (Ala.),95
First_Draft_Treatment,the Lowndes County Christian Movement for Human Rights,ORG,,
First_Draft_Treatment,80%,PERCENT,,
First_Draft_Treatment,the Lowndes County's,GPE,,
First_Draft_Treatment,un,ORG,Dade County (Fla.),90
First_Draft_Treatment,118%,PERCENT,,
First_Draft_Treatment,SNCC,ORG,,
First_Draft_Treatment,LCCMHR,ORG,,
First_Draft_Treatment,first,ORDINAL,,
First_Draft_Treatment,the Voting Rights Act,LAW,Voting,90
First_Draft_Treatment,first,ORDINAL,,
First_Draft_Treatment,Gloria House,ORG,,
First_Draft_Treatment,Hayneville,GPE,,
First_Draft_Treatment,Fort Deposit,GPE,,
First_Draft_Treatment,GLORIA HOUSE,ORG,,
First_Draft_Treatment,Hayneville,GPE,,
First_Draft_Treatment,Watts,LOC,,
First_Draft_Treatment,Los Angeles,GPE,,
First_Draft_Treatment,ben,PERSON,"Chavis, Ben, 1948-",90
First_Draft_Treatment,Hayneville,GPE,,
First_Draft_Treatment,Jonathon Daniels,PERSON,,
First_Draft_Treatment,Haynevilled,GPE,,
First_Draft_Treatment,a Democratic Party,ORG,,
First_Draft_Treatment,second,ORDINAL,,
First_Draft_Treatment,FRANK MILES,PERSON,,
First_Draft_Treatment,JR,PERSON,,
First_Draft_Treatment,the Democratic Party,ORG,,
First_Draft_Treatment,Lyndon Baines Johnson's,ORG,,
First_Draft_Treatment,Alabama,GPE,,
First_Draft_Treatment,George Wallace,PERSON,"Wallace, George C. (George Corley), 1919-1998",90
First_Draft_Treatment,Al Lingo,PERSON,,
First_Draft_Treatment,Selma,GPE,,
First_Draft_Treatment,Montgomery,ORG,"Selma to Montgomery Rights March (1965 : Selma, Ala.)",90
First_Draft_Treatment,Jim Clark,PERSON,,
First_Draft_Treatment,Dallas County,GPE,,
First_Draft_Treatment,the Democratic Party,ORG,,
First_Draft_Treatment,Alabama,GPE,,
First_Draft_Treatment,the Democratic Party,ORG,,
First_Draft_Treatment,the Republican Party,ORG,,
First_Draft_Treatment,Alabama,GPE,,
First_Draft_Treatment,South,LOC,Anti-apartheid movements--South Africa,90
First_Draft_Treatment,Alabama,GPE,,
First_Draft_Treatment,the Democratic Party,ORG,,
First_Draft_Treatment,Alabama,GPE,,
First_Draft_Treatment,SNCC,ORG,,
First_Draft_Treatment,LCCMHR,ORG,,
First_Draft_Treatment,King,PERSON,Cooking,90
First_Draft_Treatment,Lowndes County,GPE,Lowndes County (Ala.),95
First_Draft_Treatment,the Democratic Party,ORG,,
First_Draft_Treatment,The Lowndes County Freedom Organization,ORG,Lowndes County Freedom Organization,95
First_Draft_Treatment,emblem,GPE,,
First_Draft_Treatment,Lowndes County,GPE,Lowndes County (Ala.),95
First_Draft_Treatment,the Lowndes County Freedom Organization,ORG,Lowndes County Freedom Organization,95
First_Draft_Treatment,Alabama,GPE,,
First_Draft_Treatment,Alabama,GPE,,
First_Draft_Treatment,the Alabama Democratic Party,ORG,,
First_Draft_Treatment,the Black Panther Party,ORG,Black Panther Party,95
First_Draft_Treatment,the Alabama Democratic Party,ORG,,
First_Draft_Treatment,the White Cock Party,ORG,,
First_Draft_Treatment,LCFO,ORG,,
First_Draft_Treatment,Lowndes County,GPE,Lowndes County (Ala.),95
First_Draft_Treatment,SNCC,ORG,,
First_Draft_Treatment,Lowndes County,GPE,Lowndes County (Ala.),95
First_Draft_Treatment,Robert Strickland,PERSON,,
First_Draft_Treatment,Lowndes,PERSON,Lowndes County (Ala.),90
First_Draft_Treatment,Carmichael,PERSON,"Carmichael, Stokely, 1941-1998",90
First_Draft_Treatment,the Lowndes County Freedom,ORG,,
First_Draft_Treatment,the Deacons for Defense,ORG,,
First_Draft_Treatment,the Alabama Democratic Party,ORG,,
First_Draft_Treatment,Lowndes County,GPE,Lowndes County (Ala.),95
First_Draft_Treatment,20-25 miles,QUANTITY,,
First_Draft_Treatment,first,ORDINAL,,
First_Draft_Treatment,LCFO,PERSON,,
First_Draft_Treatment,SNCC,ORG,,
First_Draft_Treatment,SNCC,ORG,,
First_Draft_Treatment,Kingston Springs,GPE,,
First_Draft_Treatment,Nashville,GPE,,
First_Draft_Treatment,Tennessee,GPE,Riots--Tennessee--Memphis,90
First_Draft_Treatment,John Lewis,PERSON,"Lewis, John, 1940-2020",90
First_Draft_Treatment,King,PERSON,Cooking,90
First_Draft_Treatment,Lyndon Johnson,PERSON,"Johnson, Lyndon B. (Lyndon Baines), 1908-1973",90
First_Draft_Treatment,Stokely Carmichael,PERSON,"Carmichael, Stokely, 1941-1998",90
First_Draft_Treatment,CONT,ORG,Gun control,90
First_Draft_Treatment,Jim Foreman,PERSON,,
First_Draft_Treatment,SCLC,NORP,,
First_Draft_Treatment,Hosea Williams,PERSON,,
First_Draft_Treatment,Andrew Young,PERSON,"Young, Andrew, 1932-",95
First_Draft_Treatment,SNCC,ORG,,
First_Draft_Treatment,Lowndes County,GPE,Lowndes County (Ala.),95
First_Draft_Treatment,Bob Mants,PERSON,"Mants, Bob",95
First_Draft_Treatment,SNCC,ORG,,
First_Draft_Treatment,Stokely,PERSON,"Carmichael, Stokely, 1941-1998",90
First_Draft_Treatment,SNCC,ORG,,
First_Draft_Treatment,Afro-American,NORP,Organization of Afro-American Unity,90
First_Draft_Treatment,James Meredith,PERSON,"Meredith, James, 1933-",95
First_Draft_Treatment,Mississippi,GPE,Civil rights demonstrations--Mississippi--Jackson,90
First_Draft_Treatment,Floyd McKissick,PERSON,"McKissick, Floyd B. (Floyd Bixler), 1922-",90
First_Draft_Treatment,Andrew Young,PERSON,"Young, Andrew, 1932-",95
First_Draft_Treatment,Hosea Williams/,PERSON,,
First_Draft_Treatment,James Orange,PERSON,,
First_Draft_Treatment,Stokely Carmichael,PERSON,"Carmichael, Stokely, 1941-1998",90
First_Draft_Treatment,Cleveland Sellers,ORG,"Sellers, Cleveland, 1944-",95
First_Draft_Treatment,SNCC,ORG,,
First_Draft_Treatment,Carmichael,PERSON,"Carmichael, Stokely, 1941-1998",90
First_Draft_Treatment,SNCC,ORG,,
First_Draft_Treatment,NAACP,ORG,,
First_Draft_Treatment,the Urban League,ORG,,
First_Draft_Treatment,SNCC,ORG,,
First_Draft_Treatment,King,PERSON,Cooking,90
First_Draft_Treatment,SNCC,GPE,,
First_Draft_Treatment,The Deacons for Defense,ORG,,
First_Draft_Treatment,Ernest Thomas,PERSON,,
First_Draft_Treatment,King,PERSON,Cooking,90
First_Draft_Treatment,Vietnam,GPE,"Vietnam War, 1961-1975",90
First_Draft_Treatment,Stokely Carmichael,PERSON,"Carmichael, Stokely, 1941-1998",90
First_Draft_Treatment,Greenwood,LOC,,
First_Draft_Treatment,Mississippi,GPE,Civil rights demonstrations--Mississippi--Jackson,90
First_Draft_Treatment,Black Power,WORK_OF_ART,Black power,100
First_Draft_Treatment,Watts,LOC,,
First_Draft_Treatment,California,GPE,Black Panther Party. Southern California Chapter,90
First_Draft_Treatment,Ronald Reagan,PERSON,,
First_Draft_Treatment,Republican,NORP,,
First_Draft_Treatment,America,GPE,African American authors,90
First_Draft_Treatment,Philadelphia,GPE,,
First_Draft_Treatment,Mississippi,GPE,Civil rights demonstrations--Mississippi--Jackson,90
First_Draft_Treatment,second,ORDINAL,,
First_Draft_Treatment,Chaney,ORG,"Chaney, James Earl, 1943-1964",90
First_Draft_Treatment,Goodman,ORG,"Goodman, Andrew, 1943-1964",90
First_Draft_Treatment,Schwerner,ORG,"Schwerner, Michael Henry, 1939-1964",90
First_Draft_Treatment,Canton,GPE,,
First_Draft_Treatment,Mississippi,GPE,Civil rights demonstrations--Mississippi--Jackson,90
First_Draft_Treatment,Jackson,GPE,Civil rights demonstrations--Mississippi--Jackson,90
First_Draft_Treatment,Canton,GPE,,
First_Draft_Treatment,John Lewis,PERSON,"Lewis, John, 1940-2020",90
First_Draft_Treatment,Canton,GPE,,
First_Draft_Treatment,Canton,GPE,,
First_Draft_Treatment,America,GPE,African American authors,90
First_Draft_Treatment,Jackson,GPE,Civil rights demonstrations--Mississippi--Jackson,90
First_Draft_Treatment,Mississippi,GPE,Civil rights demonstrations--Mississippi--Jackson,90
First_Draft_Treatment,SNCC,ORG,,
First_Draft_Treatment,Black Power,WORK_OF_ART,Black power,100
First_Draft_Treatment,Jackson,NORP,Civil rights demonstrations--Mississippi--Jackson,90
First_Draft_Treatment,King,PERSON,Cooking,90
First_Draft_Treatment,Stokely Carmichael,PERSON,"Carmichael, Stokely, 1941-1998",90
First_Draft_Treatment,SCLC,ORG,,
First_Draft_Treatment,James Orange,PERSON,,
First_Draft_Treatment,SNCC,ORG,,
First_Draft_Treatment,Black Power,WORK_OF_ART,Black power,100
Episode_Transcript,King,PERSON,Cooking,90
Episode_Transcript,Stokely Carmichael,PERSON,"Carmichael, Stokely, 1941-1998",90
Episode_Transcript,Malcolm X,PERSON,"X, Malcolm, 1925-1965",90
Episode_Transcript,Negroes,ORG,,
Episode_Transcript,boycotts,GPE,Busing for school integration--Massachusetts--Boston--Boycotts,90
Episode_Transcript,South,LOC,Anti-apartheid movements--South Africa,90
Episode_Transcript,Miss America,PERSON,,
Episode_Transcript,Miss World,ORG,,
Episode_Transcript,Universe,PERSON,,
Episode_Transcript,Africa,LOC,African American authors,90
Episode_Transcript,The Black Panthers,ORG,,
Episode_Transcript,Vietnam,GPE,"Vietnam War, 1961-1975",90
Episode_Transcript,American,NORP,African American authors,90
Episode_Transcript,America,GPE,African American authors,90
Episode_Transcript,NARRATOR,PERSON,,
Episode_Transcript,Americans,NORP,African Americans--Education,90
Episode_Transcript,Cleveland,GPE,Cleveland (Ohio)--Politics and government,90
Episode_Transcript,NARRATOR,PERSON,,
Episode_Transcript,America,GPE,African American authors,90
Episode_Transcript,America,GPE,African American authors,90
Episode_Transcript,JAMES HAUGHTON,PERSON,,
Episode_Transcript,Less than 2 percent,PERCENT,,
Episode_Transcript,Negro,ORG,,
Episode_Transcript,Harlem,LOC,,
Episode_Transcript,Nationalists,NORP,,
Episode_Transcript,Muslims,NORP,African American Muslims,90
Episode_Transcript,America,GPE,African American authors,90
Episode_Transcript,the United States,GPE,,
Episode_Transcript,Martin Luther King,PERSON,"King, Martin Luther (Dr.), Jr., 1929-1968",90
Episode_Transcript,America,GPE,African American authors,90
Episode_Transcript,Harlem,LOC,,
Episode_Transcript,Muslim,NORP,African American Muslims,90
Episode_Transcript,NARRATOR,ORG,,
Episode_Transcript,the Nation of Islam,ORG,,
Episode_Transcript,the Honorable Elijah Mohammed,PERSON,,
Episode_Transcript,the Nation of Islam,ORG,,
Episode_Transcript,Black Muslims,NORP,,
Episode_Transcript,Elijah Mohammed,PERSON,,
Episode_Transcript,American Negro,ORG,,
Episode_Transcript,Islam,ORG,"Nation of Islam (Chicago, Ill.)",90
Episode_Transcript,Elijah Mohammed,PERSON,,
Episode_Transcript,the Honorable Elijah Mohammed,WORK_OF_ART,,
Episode_Transcript,Earth,LOC,,
Episode_Transcript,The Honorable Elijah Mohammed,WORK_OF_ART,,
Episode_Transcript,Malcolm X,PERSON,"X, Malcolm, 1925-1965",90
Episode_Transcript,the Nation of Islam,ORG,,
Episode_Transcript,Malcolm Little,PERSON,,
Episode_Transcript,Marcus Garvey,PERSON,,
Episode_Transcript,Malcolm,PERSON,"X, Malcolm, 1925-1965",90
Episode_Transcript,Elijah Mohammed,PERSON,,
Episode_Transcript,Muslim,NORP,African American Muslims,90
Episode_Transcript,the Nation of Islam,ORG,,
Episode_Transcript,The Honorable Elijah Mohammed,WORK_OF_ART,,
Episode_Transcript,first,ORDINAL,,
Episode_Transcript,Harlem,GPE,,
Episode_Transcript,the Nation of Islam,ORG,,
Episode_Transcript,MIKE WALLACE,PERSON,"Wallace, Mike, 1918-",95
Episode_Transcript,Negroes,ORG,,
Episode_Transcript,Negro,ORG,,
Episode_Transcript,the United States,GPE,,
Episode_Transcript,Louis Lomax,PERSON,,
Episode_Transcript,Muslims,NORP,African American Muslims,90
Episode_Transcript,first,ORDINAL,,
Episode_Transcript,Lomax,GPE,,
Episode_Transcript,"Washington, DC",GPE,,
Episode_Transcript,Louis X,PERSON,,
Episode_Transcript,The Trial,WORK_OF_ART,,
Episode_Transcript,Earth,LOC,,
Episode_Transcript,Earth,LOC,,
Episode_Transcript,Earth,LOC,,
Episode_Transcript,MIKE WALLACE,PERSON,"Wallace, Mike, 1918-",95
Episode_Transcript,Louis Lomax,PERSON,,
Episode_Transcript,Black Muslim,NORP,,
Episode_Transcript,Muhammed,PERSON,,
Episode_Transcript,Muhammed,PERSON,,
Episode_Transcript,Malcolm X,PERSON,"X, Malcolm, 1925-1965",90
Episode_Transcript,the Nation of Islam,ORG,,
Episode_Transcript,Man Tan,PERSON,,
Episode_Transcript,SONIA,PERSON,"Sanchez, Sonia, 1934-",90
Episode_Transcript,SONIA,PERSON,"Sanchez, Sonia, 1934-",90
Episode_Transcript,Harlem,LOC,,
Episode_Transcript,Harlem,LOC,,
Episode_Transcript,Albany,GPE,,
Episode_Transcript,Washington,GPE,Anti-war demonstrations--Washington (D.C.),90
Episode_Transcript,the White House,ORG,,
Episode_Transcript,Harlem,LOC,,
Episode_Transcript,Negro,ORG,,
Episode_Transcript,Harlem,LOC,,
Episode_Transcript,SONIA,PERSON,"Sanchez, Sonia, 1934-",90
Episode_Transcript,Malcolm X,PERSON,"X, Malcolm, 1925-1965",90
Episode_Transcript,Alex Haley,PERSON,"Haley, Alex, 1921-1992",90
Episode_Transcript,ALEX,PERSON,"Haley, Alex, 1921-1992",90
Episode_Transcript,Malcolm,PERSON,"X, Malcolm, 1925-1965",90
Episode_Transcript,The Autobiography of Malcolm X,WORK_OF_ART,,
Episode_Transcript,Elijah Mohammed,PERSON,,
Episode_Transcript,the Nation of Islam,ORG,,
Episode_Transcript,Malcolm,PERSON,"X, Malcolm, 1925-1965",90
Episode_Transcript,first,ORDINAL,,
Episode_Transcript,Malcolm,PERSON,"X, Malcolm, 1925-1965",90
Episode_Transcript,Elijah Mohammed,PERSON,,
Episode_Transcript,Malcolm X,PERSON,"X, Malcolm, 1925-1965",90
Episode_Transcript,Martin Luther King,PERSON,"King, Martin Luther (Dr.), Jr., 1929-1968",90
Episode_Transcript,LUTHER KING,PERSON,,
Episode_Transcript,JR,PERSON,,
Episode_Transcript,Malcolm X,PERSON,"X, Malcolm, 1925-1965",90
Episode_Transcript,South,LOC,Anti-apartheid movements--South Africa,90
Episode_Transcript,Martin Luther King,PERSON,"King, Martin Luther (Dr.), Jr., 1929-1968",90
Episode_Transcript,Malcolm,PERSON,"X, Malcolm, 1925-1965",90
Episode_Transcript,North,LOC,,
Episode_Transcript,South,LOC,Anti-apartheid movements--South Africa,90
Episode_Transcript,Martin,PERSON,"King, Martin Luther (Dr.), Jr., 1929-1968",90
Episode_Transcript,America,GPE,African American authors,90
Episode_Transcript,American,NORP,African American authors,90
Episode_Transcript,America,GPE,African American authors,90
Episode_Transcript,Malcolm,PERSON,"X, Malcolm, 1925-1965",90
Episode_Transcript,Martin Luther King,PERSON,"King, Martin Luther (Dr.), Jr., 1929-1968",90
Episode_Transcript,Lincoln,ORG,,
Episode_Transcript,the Civil War,EVENT,,
Episode_Transcript,Kennedy,PERSON,"Kennedy, Robert F., 1925-1968",90
Episode_Transcript,Negroes,PERSON,,
Episode_Transcript,80 percent,PERCENT,,
Episode_Transcript,Birmingham,GPE,,
Episode_Transcript,Alabama,GPE,,
Episode_Transcript,Kennedy,PERSON,"Kennedy, Robert F., 1925-1968",90
Episode_Transcript,Negroes,ORG,,
Episode_Transcript,Birmingham,GPE,,
Episode_Transcript,Kennedy,PERSON,"Kennedy, Robert F., 1925-1968",90
Episode_Transcript,Negroes,ORG,,
Episode_Transcript,NARRATOR,ORG,,
Episode_Transcript,John F. Kennedy,PERSON,,
Episode_Transcript,Elijah Mohammed,PERSON,,
Episode_Transcript,Malcolm X,PERSON,"X, Malcolm, 1925-1965",90
Episode_Transcript,John Kennedy,PERSON,,
Episode_Transcript,Malcolm,PERSON,"X, Malcolm, 1925-1965",90
Episode_Transcript,Kennedy,PERSON,"Kennedy, Robert F., 1925-1968",90
Episode_Transcript,the White House,ORG,,
Episode_Transcript,NARRATOR,ORG,,
Episode_Transcript,Malcolm X,PERSON,"X, Malcolm, 1925-1965",90
Episode_Transcript,The Nation of Islam,ORG,,
Episode_Transcript,Negroes,ORG,,
Episode_Transcript,NARRATOR,PERSON,,
Episode_Transcript,Malcolm X,PERSON,"X, Malcolm, 1925-1965",90
Episode_Transcript,Americans,NORP,African Americans--Education,90
Episode_Transcript,the Organization of Afro-American Unity,ORG,Organization of Afro-American Unity,95
Episode_Transcript,Negro,ORG,,
Episode_Transcript,Malcolm X,PERSON,"X, Malcolm, 1925-1965",90
Episode_Transcript,Africa,LOC,African American authors,90
Episode_Transcript,Mecca,GPE,,
Episode_Transcript,Muslim,NORP,African American Muslims,90
Episode_Transcript,African,NORP,African American authors,90
Episode_Transcript,U.S.,GPE,Operation PUSH (U.S.),90
Episode_Transcript,State Departments,ORG,,
Episode_Transcript,African,NORP,African American authors,90
Episode_Transcript,America,GPE,African American authors,90
Episode_Transcript,African,NORP,African American authors,90
Episode_Transcript,America,GPE,African American authors,90
Episode_Transcript,American,NORP,African American authors,90
Episode_Transcript,American,NORP,African American authors,90
Episode_Transcript,Negro,ORG,,
Episode_Transcript,U.S.,GPE,Operation PUSH (U.S.),90
Episode_Transcript,the U.S. Commission on Human Rights,ORG,,
Episode_Transcript,the World Court,ORG,,
Episode_Transcript,Malcolm,PERSON,"X, Malcolm, 1925-1965",90
Episode_Transcript,the United Nations,ORG,,
Episode_Transcript,the United States,GPE,,
Episode_Transcript,American,NORP,African American authors,90
Episode_Transcript,African,NORP,African American authors,90
Episode_Transcript,Asian,NORP,,
Episode_Transcript,Latin American,NORP,,
Episode_Transcript,United Nations,ORG,,
Episode_Transcript,South Africa,GPE,Anti-apartheid movements--South Africa,90
Episode_Transcript,Portugal,GPE,,
Episode_Transcript,Angola,GPE,,
Episode_Transcript,U.N.,ORG,,
Episode_Transcript,Negroes,ORG,,
Episode_Transcript,NARRATOR,ORG,,
Episode_Transcript,Malcolm,PERSON,"X, Malcolm, 1925-1965",90
Episode_Transcript,Africa,LOC,African American authors,90
Episode_Transcript,the Nation of Islam,ORG,,
Episode_Transcript,Oxford,GPE,,
Episode_Transcript,England,GPE,,
Episode_Transcript,a Civil Rights Bill,LAW,,
Episode_Transcript,NARRATOR,ORG,,
Episode_Transcript,Malcolm X's,PERSON,,
Episode_Transcript,the Student Nonviolent Coordinating Committee,ORG,Student Nonviolent Coordinating Committee (U.S.),90
Episode_Transcript,SNCC,GPE,,
Episode_Transcript,Malcolm,PERSON,"X, Malcolm, 1925-1965",90
Episode_Transcript,SNCC,GPE,,
Episode_Transcript,first,ORDINAL,,
Episode_Transcript,Malcolm X,PERSON,"X, Malcolm, 1925-1965",90
Episode_Transcript,Malcolm X,PERSON,"X, Malcolm, 1925-1965",90
Episode_Transcript,Malcolm X. NARRATOR,PERSON,,
Episode_Transcript,SNCC,ORG,,
Episode_Transcript,Martin Luther King,PERSON,"King, Martin Luther (Dr.), Jr., 1929-1968",90
Episode_Transcript,Selma,GPE,,
Episode_Transcript,Alabama,GPE,,
Episode_Transcript,SNCC,ORG,,
Episode_Transcript,Malcolm X,PERSON,"X, Malcolm, 1925-1965",90
Episode_Transcript,Selma,GPE,,
Episode_Transcript,Martin Luther King,PERSON,"King, Martin Luther (Dr.), Jr., 1929-1968",90
Episode_Transcript,Malcolm X's,PERSON,,
Episode_Transcript,BETTY,ORG,"Shabazz, Betty",90
Episode_Transcript,ALEX,PERSON,"Haley, Alex, 1921-1992",90
Episode_Transcript,Malcolm X.,PERSON,,
Episode_Transcript,first,ORDINAL,,
Episode_Transcript,Malcolm X,PERSON,"X, Malcolm, 1925-1965",90
Episode_Transcript,the Black Muslim Movement,ORG,,
Episode_Transcript,Elijah Mohammed,PERSON,,
Episode_Transcript,NARRATOR,PERSON,,
Episode_Transcript,Malcolm X,PERSON,"X, Malcolm, 1925-1965",90
Episode_Transcript,Muslims,NORP,African American Muslims,90
Episode_Transcript,the Audubon Ballroom,FAC,,
Episode_Transcript,SONIA,PERSON,"Sanchez, Sonia, 1934-",90
Episode_Transcript,Audubon,NORP,,
Episode_Transcript,Malcolm,PERSON,"X, Malcolm, 1925-1965",90
Episode_Transcript,NARRATOR,PERSON,,
Episode_Transcript,Malcolm X,PERSON,"X, Malcolm, 1925-1965",90
Episode_Transcript,BETTY,ORG,"Shabazz, Betty",90
Episode_Transcript,Harlem,LOC,,
Episode_Transcript,Malcolm X. OSSIE,PERSON,,
Episode_Transcript,Malcolm,PERSON,"X, Malcolm, 1925-1965",90
Episode_Transcript,Muslims,NORP,African American Muslims,90
Episode_Transcript,Muslim,NORP,African American Muslims,90
Episode_Transcript,Ardsley,PERSON,,
Episode_Transcript,NARRATOR,PERSON,,
Episode_Transcript,Malcolm X,PERSON,"X, Malcolm, 1925-1965",90
Episode_Transcript,South,LOC,Anti-apartheid movements--South Africa,90
Episode_Transcript,Malcolm X's,PERSON,,
Episode_Transcript,the Student Nonviolent Coordinating Committee,ORG,Student Nonviolent Coordinating Committee (U.S.),90
Episode_Transcript,Malcolm,PERSON,"X, Malcolm, 1925-1965",90
Episode_Transcript,NARRATOR,PERSON,,
Episode_Transcript,Carmichael,GPE,"Carmichael, Stokely, 1941-1998",90
Episode_Transcript,SNCC,ORG,,
Episode_Transcript,Lowndes County,GPE,Lowndes County (Ala.),95
Episode_Transcript,Alabama,GPE,,
Episode_Transcript,Bloody Lowndes,ORG,,
Episode_Transcript,80 percent,PERCENT,,
Episode_Transcript,80 percent,PERCENT,,
Episode_Transcript,80 percent,PERCENT,,
Episode_Transcript,Stokely Carmichael,PERSON,"Carmichael, Stokely, 1941-1998",90
Episode_Transcript,Colton Cox,PERSON,,
Episode_Transcript,Alabama,GPE,,
Episode_Transcript,the Democratic Party,ORG,,
Episode_Transcript,the Republican Party,ORG,,
Episode_Transcript,George Wallace,PERSON,"Wallace, George C. (George Corley), 1919-1998",90
Episode_Transcript,the Alabama Democratic Party,ORG,,
Episode_Transcript,The Alabama Democratic Party,ORG,,
Episode_Transcript,the Democratic Party,ORG,,
Episode_Transcript,Alabama,GPE,,
Episode_Transcript,the Lowndes County Freedom Organization,ORG,Lowndes County Freedom Organization,95
Episode_Transcript,Lowndes County,GPE,Lowndes County (Ala.),95
Episode_Transcript,the Democratic Party,ORG,,
Episode_Transcript,the Republican Party,ORG,,
Episode_Transcript,NARRATOR,ORG,,
Episode_Transcript,SNCC,ORG,,
Episode_Transcript,first,ORDINAL,,
Episode_Transcript,Lowndes County,GPE,Lowndes County (Ala.),95
Episode_Transcript,Democratic,NORP,"Democratic National Convention (1964 : Atlantic City, N.J.)",90
Episode_Transcript,NARRATOR,PERSON,,
Episode_Transcript,Lowndes County,GPE,Lowndes County (Ala.),95
Episode_Transcript,first,ORDINAL,,
Episode_Transcript,Democrats,NORP,,
Episode_Transcript,Hayville,LOC,,
Episode_Transcript,the Lowndes County Freedom Organization,ORG,Lowndes County Freedom Organization,95
Episode_Transcript,the First Baptist Church,ORG,,
Episode_Transcript,first,ORDINAL,,
Episode_Transcript,Stokely Carmichael,PERSON,"Carmichael, Stokely, 1941-1998",90
Episode_Transcript,SNCC,ORG,,
Episode_Transcript,John Lewis,PERSON,"Lewis, John, 1940-2020",90
Episode_Transcript,John Lewis,PERSON,"Lewis, John, 1940-2020",90
Episode_Transcript,Martin Luther King,PERSON,"King, Martin Luther (Dr.), Jr., 1929-1968",90
Episode_Transcript,Lyndon Johnson,PERSON,"Johnson, Lyndon B. (Lyndon Baines), 1908-1973",90
Episode_Transcript,Martin Luther King,PERSON,"King, Martin Luther (Dr.), Jr., 1929-1968",90
Episode_Transcript,SNCC,ORG,,
Episode_Transcript,SNCC,ORG,,
Episode_Transcript,King's,ORG,,
Episode_Transcript,SNCC,ORG,,
Episode_Transcript,Congress,ORG,Congress of African Peoples,90
Episode_Transcript,the Voting Rights Act,LAW,Voting,90
Episode_Transcript,Mississippi,GPE,Civil rights demonstrations--Mississippi--Jackson,90
Episode_Transcript,James Meredith,PERSON,"Meredith, James, 1933-",95
Episode_Transcript,first,ORDINAL,,
Episode_Transcript,the University of Mississippi,ORG,,
Episode_Transcript,Meredith,ORG,"Meredith, James, 1933-",90
Episode_Transcript,Memphis,GPE,Memphis (Tenn.)--Economic conditions,90
Episode_Transcript,Tennessee,GPE,Riots--Tennessee--Memphis,90
Episode_Transcript,220 miles,QUANTITY,,
Episode_Transcript,Jackson,GPE,Civil rights demonstrations--Mississippi--Jackson,90
Episode_Transcript,Mississippi,GPE,Civil rights demonstrations--Mississippi--Jackson,90
Episode_Transcript,JAMES,PERSON,"Barkley, Elliott James ""L.D.""",90
Episode_Transcript,Negro,ORG,,
Episode_Transcript,Mississippi,GPE,Civil rights demonstrations--Mississippi--Jackson,90
Episode_Transcript,NARRATOR,PERSON,,
Episode_Transcript,James Meredith,PERSON,"Meredith, James, 1933-",95
Episode_Transcript,MARTIN LUTHER KING,PERSON,"King, Martin Luther (Dr.), Jr., 1929-1968",90
Episode_Transcript,JR,PERSON,,
Episode_Transcript,James Meredith,PERSON,"Meredith, James, 1933-",95
Episode_Transcript,Memphis,GPE,Memphis (Tenn.)--Economic conditions,90
Episode_Transcript,Tennessee,GPE,Riots--Tennessee--Memphis,90
Episode_Transcript,James Meredith,PERSON,"Meredith, James, 1933-",95
Episode_Transcript,MARTIN LUTHER KING,PERSON,"King, Martin Luther (Dr.), Jr., 1929-1968",90
Episode_Transcript,JR,PERSON,,
Episode_Transcript,NARRATOR,PERSON,,
Episode_Transcript,MARTIN LUTHER KING,PERSON,"King, Martin Luther (Dr.), Jr., 1929-1968",90
Episode_Transcript,JR,PERSON,,
Episode_Transcript,McKISSICK,LANGUAGE,"McKissick, Floyd B. (Floyd Bixler), 1922-",90
Episode_Transcript,Meredith,PERSON,"Meredith, James, 1933-",90
Episode_Transcript,Mississippi,GPE,Civil rights demonstrations--Mississippi--Jackson,90
Episode_Transcript,Carmichael,GPE,"Carmichael, Stokely, 1941-1998",90
Episode_Transcript,King,PERSON,Cooking,90
Episode_Transcript,Mississippi,GPE,Civil rights demonstrations--Mississippi--Jackson,90
Episode_Transcript,Mississippi,GPE,Civil rights demonstrations--Mississippi--Jackson,90
Episode_Transcript,Mississippi,GPE,Civil rights demonstrations--Mississippi--Jackson,90
Episode_Transcript,Mississippi,LOC,Civil rights demonstrations--Mississippi--Jackson,90
Episode_Transcript,Mississippi,LOC,Civil rights demonstrations--Mississippi--Jackson,90
Episode_Transcript,Highway 51,FAC,,
Episode_Transcript,Mississippi,GPE,Civil rights demonstrations--Mississippi--Jackson,90
Episode_Transcript,Paul Johnson,PERSON,"Johnson, Paul B., 1916-1985",90
Episode_Transcript,James Meredith,PERSON,"Meredith, James, 1933-",95
Episode_Transcript,the Deacons for Defense and Justice,ORG,,
Episode_Transcript,THOMAS,PERSON,"Atkins, Thomas I., 1939-2008",90
Episode_Transcript,ERNEST THOMAS,PERSON,,
Episode_Transcript,MARTIN LUTHER KING,PERSON,"King, Martin Luther (Dr.), Jr., 1929-1968",90
Episode_Transcript,JR,PERSON,,
Episode_Transcript,SNCC,ORG,,
Episode_Transcript,Greenwood,LOC,,
Episode_Transcript,Mississippi,GPE,Civil rights demonstrations--Mississippi--Jackson,90
Episode_Transcript,Willie Ricks,PERSON,,
Episode_Transcript,Greenwood,WORK_OF_ART,,
Episode_Transcript,SNCC,ORG,,
Episode_Transcript,Greenwood,LOC,,
Episode_Transcript,Ricks,PERSON,,
Episode_Transcript,Cleve Sellers,PERSON,"Sellers, Cleveland, 1944-",90
Episode_Transcript,Ricks,PERSON,,
Episode_Transcript,Cleve,PERSON,Cleveland (Ohio)--Race relations,90
Episode_Transcript,Rick,PERSON,,
Episode_Transcript,DAVID DAWLEY,PERSON,"Dawley, David",95
Episode_Transcript,the Student Nonviolent Coordinating Committee,ORG,Student Nonviolent Coordinating Committee (U.S.),90
Episode_Transcript,the Student Nonviolent Coordinating Committee,ORG,Student Nonviolent Coordinating Committee (U.S.),90
Episode_Transcript,second,ORDINAL,,
Episode_Transcript,SNCC,ORG,,
Episode_Transcript,SNCC,ORG,,
Episode_Transcript,Mississippi,GPE,Civil rights demonstrations--Mississippi--Jackson,90
Episode_Transcript,Mississippians,NORP,,
Episode_Transcript,North,LOC,,
Episode_Transcript,DAVID DAWLEY,PERSON,"Dawley, David",95
Episode_Transcript,Vietnam,GPE,"Vietnam War, 1961-1975",90
Episode_Transcript,NARRATOR,PERSON,,
Episode_Transcript,Canton,GPE,,
Episode_Transcript,Mississippi,GPE,Civil rights demonstrations--Mississippi--Jackson,90
Episode_Transcript,Martin Luther King,PERSON,"King, Martin Luther (Dr.), Jr., 1929-1968",90
Episode_Transcript,Stokely Carmichael,PERSON,"Carmichael, Stokely, 1941-1998",90
Episode_Transcript,MARTIN LUTHER KING,PERSON,"King, Martin Luther (Dr.), Jr., 1929-1968",90
Episode_Transcript,JR,PERSON,,
Episode_Transcript,first,ORDINAL,,
Episode_Transcript,FRANK,PERSON,"Legree, Frank",90
Episode_Transcript,Carmichael,PERSON,"Carmichael, Stokely, 1941-1998",90
Episode_Transcript,King,PERSON,Cooking,90
Episode_Transcript,FRANK,PERSON,"Legree, Frank",90
Episode_Transcript,South,LOC,Anti-apartheid movements--South Africa,90
Episode_Transcript,Canton,GPE,,
Episode_Transcript,Mississippi,GPE,Civil rights demonstrations--Mississippi--Jackson,90
Episode_Transcript,Mississippi,GPE,Civil rights demonstrations--Mississippi--Jackson,90
Episode_Transcript,Mississippi,LOC,Civil rights demonstrations--Mississippi--Jackson,90
Episode_Transcript,MARTIN LUTHRE KING,PRODUCT,,
Episode_Transcript,JR,PERSON,,
Episode_Transcript,Mississippi,GPE,Civil rights demonstrations--Mississippi--Jackson,90
Episode_Transcript,ARLIE,PERSON,"Schardt, Arlie",90
Episode_Transcript,Mississippi,GPE,Civil rights demonstrations--Mississippi--Jackson,90
Episode_Transcript,Whitey,PERSON,,
Episode_Transcript,Whitey,PERSON,,
Episode_Transcript,Whitey,PERSON,,
Episode_Transcript,NARRATOR,PERSON,,
Episode_Transcript,Jackson,GPE,Civil rights demonstrations--Mississippi--Jackson,90
Episode_Transcript,Mississippi,GPE,Civil rights demonstrations--Mississippi--Jackson,90
Episode_Transcript,Mississippi,GPE,Civil rights demonstrations--Mississippi--Jackson,90
Episode_Transcript,Meredith,ORG,"Meredith, James, 1933-",90
Episode_Transcript,first,ORDINAL,,
Episode_Transcript,Memphis,GPE,Memphis (Tenn.)--Economic conditions,90
Episode_Transcript,MARTIN LUTHER KING,PERSON,"King, Martin Luther (Dr.), Jr., 1929-1968",90
Episode_Transcript,JR,PERSON,,
Episode_Transcript,Mississippi,GPE,Civil rights demonstrations--Mississippi--Jackson,90
Episode_Transcript,NARRATOR,PERSON,,
Episode_Transcript,Americans,NORP,African Americans--Education,90
Episode_Transcript,Americans,NORP,African Americans--Education,90
Episode_Transcript,FLOYD,ORG,"McKissick, Floyd B. (Floyd Bixler), 1922-",90
Episode_Transcript,Negro,ORG,,
Episode_Transcript,America,GPE,African American authors,90
Structure_Treatment_Final_Draft,DeVinney/ Blue/Rosen,ORG,,
Structure_Treatment_Final_Draft,Fina l Draft,ORG,Draft,90
Structure_Treatment_Final_Draft,Emerging Voices,WORK_OF_ART,,
Structure_Treatment_Final_Draft,first,ORDINAL,,
Structure_Treatment_Final_Draft,America,GPE,African American authors,90
Structure_Treatment_Final_Draft,Selma,GPE,,
Structure_Treatment_Final_Draft,Alabama,GPE,,
Structure_Treatment_Final_Draft,the Voting Rights Act,LAW,Voting,90
Structure_Treatment_Final_Draft,Un,ORG,Dade County (Fla.),90
Structure_Treatment_Final_Draft,Southern,NORP,Black Panther Party. Southern California Chapter,90
Structure_Treatment_Final_Draft,Hartin Luther King,PERSON,,
Structure_Treatment_Final_Draft,Supreme Court,ORG,,
Structure_Treatment_Final_Draft,the Voting Rights Act,LAW,Voting,90
Structure_Treatment_Final_Draft,the Southe rn Christ,ORG,,
Structure_Treatment_Final_Draft,Confer,ORG,Southern Christian Leadership Conference,90
Structure_Treatment_Final_Draft,Johnso,PERSON,"Johnson, Albert",90
Structure_Treatment_Final_Draft,Americ,ORG,African American authors,90
Structure_Treatment_Final_Draft,Americ,ORG,African American authors,90
Structure_Treatment_Final_Draft,econom ic,PRODUCT,,
Structure_Treatment_Final_Draft,resista nce,ORG,,
Structure_Treatment_Final_Draft,Moveme,FAC,Anti-apartheid movements,90
Structure_Treatment_Final_Draft,familia,GPE,,
Structure_Treatment_Final_Draft,ed,PERSON,"Education, Urban",90
Structure_Treatment_Final_Draft,marchi,PERSON,,
Structure_Treatment_Final_Draft,Studen,PERSON,Student Nonviolent Coordinating Committee (U.S.),90
Structure_Treatment_Final_Draft,Coordi,PRODUCT,Student Nonviolent Coordinating Committee (U.S.),90
Structure_Treatment_Final_Draft,Commit,ORG,Medical Committee for Human Rights (U.S.),90
Structure_Treatment_Final_Draft,SNCC,ORG,,
Structure_Treatment_Final_Draft,ge,ORG,"Ayers, Georgia",90
Structure_Treatment_Final_Draft,contra,ORG,,
Structure_Treatment_Final_Draft,Americ,GPE,African American authors,90
Structure_Treatment_Final_Draft,al partie s,PERSON,,
Structure_Treatment_Final_Draft,resistanc,PERSON,,
Structure_Treatment_Final_Draft,questio,PERSON,,
Structure_Treatment_Final_Draft,Greenw,GPE,,
Structure_Treatment_Final_Draft,Missis,GPE,Mississippi Freedom Democratic Party,90
Structure_Treatment_Final_Draft,Stokely Carmic,PRODUCT,,
Structure_Treatment_Final_Draft,Black Power,WORK_OF_ART,Black power,100
Structure_Treatment_Final_Draft,Moveme,FAC,Anti-apartheid movements,90
Structure_Treatment_Final_Draft,America,GPE,African American authors,90
Structure_Treatment_Final_Draft,Black Power,ORG,Black power,100
Structure_Treatment_Final_Draft,SNCC,ORG,,
Structure_Treatment_Final_Draft,the Americ an Dream,ORG,,
Structure_Treatment_Final_Draft,Americ,ORG,African American authors,90
Structure_Treatment_Final_Draft,severa l SNCC,ORG,,
Structure_Treatment_Final_Draft,s,ORG,Business,90
Structure_Treatment_Final_Draft,Malcolm X's,PERSON,,
Structure_Treatment_Final_Draft,SNCC,ORG,,
Structure_Treatment_Final_Draft,Missis,ORG,Mississippi Freedom Democratic Party,90
Structure_Treatment_Final_Draft,Freedom Summer,ORG,,
Structure_Treatment_Final_Draft,Africa,LOC,African American authors,90
Structure_Treatment_Final_Draft,Malcolm X,PERSON,"X, Malcolm, 1925-1965",90
Structure_Treatment_Final_Draft,Stokely Carmic,PERSON,,
Structure_Treatment_Final_Draft,Studen,PERSON,Student Nonviolent Coordinating Committee (U.S.),90
Structure_Treatment_Final_Draft,Coordi,PERSON,Student Nonviolent Coordinating Committee (U.S.),90
Structure_Treatment_Final_Draft,Commi,PERSON,Medical Committee for Human Rights (U.S.),90
Structure_Treatment_Final_Draft,Black Power,ORG,Black power,100
Structure_Treatment_Final_Draft,James Mered ith's,PERSON,,
Structure_Treatment_Final_Draft,Agains t Fear,ORG,,
Structure_Treatment_Final_Draft,DRAMATIC STRUCTURE,ORG,,
Structure_Treatment_Final_Draft,SNCC,ORG,,
Structure_Treatment_Final_Draft,Selma,ORG,,
Structure_Treatment_Final_Draft,Marching on to Freedom Land,WORK_OF_ART,,
Structure_Treatment_Final_Draft,Selma,NORP,,
Structure_Treatment_Final_Draft,Montgomery,ORG,"Selma to Montgomery Rights March (1965 : Selma, Ala.)",90
Structure_Treatment_Final_Draft,South,LOC,Anti-apartheid movements--South Africa,90
Structure_Treatment_Final_Draft,jim crow,PERSON,,
Structure_Treatment_Final_Draft,Montgomery,ORG,"Selma to Montgomery Rights March (1965 : Selma, Ala.)",90
Structure_Treatment_Final_Draft,Martin Luther King,PERSON,"King, Martin Luther (Dr.), Jr., 1929-1968",90
Structure_Treatment_Final_Draft,II,FAC,,
Structure_Treatment_Final_Draft,STANDARD,ORG,,
Structure_Treatment_Final_Draft,North,PERSON,,
Structure_Treatment_Final_Draft,Malcolm X,PERSON,"X, Malcolm, 1925-1965",90
Structure_Treatment_Final_Draft,Harlem,LOC,,
Structure_Treatment_Final_Draft,the Civil Rights Movement,ORG,,
Structure_Treatment_Final_Draft,South,LOC,Anti-apartheid movements--South Africa,90
Structure_Treatment_Final_Draft,America,GPE,African American authors,90
Structure_Treatment_Final_Draft,North,LOC,,
Structure_Treatment_Final_Draft,the Nation of Islam,ORG,,
Structure_Treatment_Final_Draft,Chicagom,ORG,,
Structure_Treatment_Final_Draft,Elijah Muhammed,PERSON,,
Structure_Treatment_Final_Draft,New York City,GPE,,
Structure_Treatment_Final_Draft,Malcolm X.,PERSON,,
Structure_Treatment_Final_Draft,Malcolm X,PERSON,"X, Malcolm, 1925-1965",90
Structure_Treatment_Final_Draft,the Nation of Islam,ORG,,
Structure_Treatment_Final_Draft,Nation,ORG,Black Christian Nationalist Church,90
Structure_Treatment_Final_Draft,Black Nationalis m,FAC,,
Structure_Treatment_Final_Draft,Nation,ORG,Black Christian Nationalist Church,90
Structure_Treatment_Final_Draft,"""The Hate That Hate Produced",WORK_OF_ART,,
Structure_Treatment_Final_Draft,Hike Wallace,PERSON,,
Structure_Treatment_Final_Draft,Louis Lomax,PERSON,,
Structure_Treatment_Final_Draft,Malcolm X,PERSON,"X, Malcolm, 1925-1965",90
Structure_Treatment_Final_Draft,the Nation of Islam,ORG,,
Structure_Treatment_Final_Draft,Malcolm,PERSON,"X, Malcolm, 1925-1965",90
Structure_Treatment_Final_Draft,Malcol,PERSON,"X, Malcolm, 1925-1965",90
Structure_Treatment_Final_Draft,Malcol m X's,PERSON,,
Structure_Treatment_Final_Draft,Earl Grant,PERSON,,
Structure_Treatment_Final_Draft,the Nation of Islam,ORG,,
Structure_Treatment_Final_Draft,the Nation of Islam,ORG,,
Structure_Treatment_Final_Draft,first,ORDINAL,,
Structure_Treatment_Final_Draft,Malco lm,PERSON,,
Structure_Treatment_Final_Draft,Betty Shaba zz,PERSON,"Shabazz, Betty",91
Structure_Treatment_Final_Draft,Malcol m X's,PERSON,,
Structure_Treatment_Final_Draft,first,ORDINAL,,
Structure_Treatment_Final_Draft,Malcol m X,PERSON,,
Structure_Treatment_Final_Draft,Mike Walla ce,PERSON,,
Structure_Treatment_Final_Draft,New York,GPE,"Bedford-Stuyvesant (New York, N.Y.)",90
Structure_Treatment_Final_Draft,first,ORDINAL,,
Structure_Treatment_Final_Draft,the Nation of Islam,ORG,,
Structure_Treatment_Final_Draft,Malcol m X.,PERSON,,
Structure_Treatment_Final_Draft,Black Ameri Malcol,ORG,,
Structure_Treatment_Final_Draft,Ameri,ORG,African American authors,90
Structure_Treatment_Final_Draft,Black Ameri,FAC,,
Structure_Treatment_Final_Draft,7 Malcolm,QUANTITY,,
Structure_Treatment_Final_Draft,Peter Bailey,PERSON,"Bailey, A. Peter",95
Structure_Treatment_Final_Draft,South,LOC,Anti-apartheid movements--South Africa,90
Structure_Treatment_Final_Draft,Harlem,LOC,,
Structure_Treatment_Final_Draft,ed Malcolm,PERSON,,
Structure_Treatment_Final_Draft,Bailey,PERSON,"Bailey, A. Peter",90
Structure_Treatment_Final_Draft,Malcolm,PERSON,"X, Malcolm, 1925-1965",90
Structure_Treatment_Final_Draft,Alex Haley,PERSON,"Haley, Alex, 1921-1992",90
Structure_Treatment_Final_Draft,Malcolm,PERSON,"X, Malcolm, 1925-1965",90
Structure_Treatment_Final_Draft,Autobiog,ORG,,
Structure_Treatment_Final_Draft,"Malcolm X.""",PERSON,,
Structure_Treatment_Final_Draft,Malcolm,PERSON,"X, Malcolm, 1925-1965",90
Structure_Treatment_Final_Draft,Clevelan d Sellers,WORK_OF_ART,,
Structure_Treatment_Final_Draft,Malcolm X,PERSON,"X, Malcolm, 1925-1965",90
Structure_Treatment_Final_Draft,Howard Univers,ORG,Howard University,90
Structure_Treatment_Final_Draft,Novembe,GPE,,
Structure_Treatment_Final_Draft,Presiden,GPE,Presidents--Election,90
Structure_Treatment_Final_Draft,John F. Kennedy,PERSON,,
Structure_Treatment_Final_Draft,Malcolm,PERSON,"X, Malcolm, 1925-1965",90
Structure_Treatment_Final_Draft,the Nation of Islam,ORG,,
Structure_Treatment_Final_Draft,Malcolm,PERSON,"X, Malcolm, 1925-1965",90
Structure_Treatment_Final_Draft,Elijah Muhammed,PERSON,,
Structure_Treatment_Final_Draft,Black Americ,ORG,,
Structure_Treatment_Final_Draft,Malcolm X,PERSON,"X, Malcolm, 1925-1965",90
Structure_Treatment_Final_Draft,Organi,PERSON,Black P. Stone Nation (Organization),90
Structure_Treatment_Final_Draft,Afro,GPE,,
Structure_Treatment_Final_Draft,"Muslim Mosque ,",ORG,,
Structure_Treatment_Final_Draft,MMI,ORG,,
Structure_Treatment_Final_Draft,Africa,LOC,African American authors,90
Structure_Treatment_Final_Draft,African,NORP,African American authors,90
Structure_Treatment_Final_Draft,Mecca,GPE,,
Structure_Treatment_Final_Draft,Africa,LOC,African American authors,90
Structure_Treatment_Final_Draft,Malcolm,PERSON,"X, Malcolm, 1925-1965",90
Structure_Treatment_Final_Draft,Studen,PERSON,Student Nonviolent Coordinating Committee (U.S.),90
Structure_Treatment_Final_Draft,Coordi,PRODUCT,Student Nonviolent Coordinating Committee (U.S.),90
Structure_Treatment_Final_Draft,Commi,PERSON,Medical Committee for Human Rights (U.S.),90
Structure_Treatment_Final_Draft,SNCC,ORG,,
Structure_Treatment_Final_Draft,ting voter registr,PERSON,,
Structure_Treatment_Final_Draft,campai,PERSON,Poor People's Campaign,90
Structure_Treatment_Final_Draft,Missis,GPE,Mississippi Freedom Democratic Party,90
Structure_Treatment_Final_Draft,Missis,ORG,Mississippi Freedom Democratic Party,90
Structure_Treatment_Final_Draft,Missis,ORG,Mississippi Freedom Democratic Party,90
Structure_Treatment_Final_Draft,the Democ ratic Nation al Conven,FAC,,
Structure_Treatment_Final_Draft,Atlant ic City,GPE,,
Structure_Treatment_Final_Draft,Malcolm X,PERSON,"X, Malcolm, 1925-1965",90
Structure_Treatment_Final_Draft,Studen,PERSON,Student Nonviolent Coordinating Committee (U.S.),90
Structure_Treatment_Final_Draft,Coordi,PRODUCT,Student Nonviolent Coordinating Committee (U.S.),90
Structure_Treatment_Final_Draft,Commit,ORG,Medical Committee for Human Rights (U.S.),90
Structure_Treatment_Final_Draft,contac,ORG,,
Structure_Treatment_Final_Draft,Malcolm X,PERSON,"X, Malcolm, 1925-1965",90
Structure_Treatment_Final_Draft,MFDP Harlem,ORG,,
Structure_Treatment_Final_Draft,Fannie Lou Hamer,PERSON,"Hamer, Fannie Lou, 1917-1977",90
Structure_Treatment_Final_Draft,SNCC,ORG,,
Structure_Treatment_Final_Draft,Harlem,GPE,,
Structure_Treatment_Final_Draft,37 teenag,QUANTITY,,
Structure_Treatment_Final_Draft,SNCC,GPE,,
Structure_Treatment_Final_Draft,McComb,ORG,,
Structure_Treatment_Final_Draft,Missis,ORG,Mississippi Freedom Democratic Party,90
Structure_Treatment_Final_Draft,Februa,ORG,,
Structure_Treatment_Final_Draft,Selma,GPE,,
Structure_Treatment_Final_Draft,Alabam a. Major,PERSON,,
Structure_Treatment_Final_Draft,Peter Bailey,PERSON,"Bailey, A. Peter",95
Structure_Treatment_Final_Draft,Malcol m's,ORG,,
Structure_Treatment_Final_Draft,organi zation,PERSON,,
Structure_Treatment_Final_Draft,Earl Grant,PERSON,,
Structure_Treatment_Final_Draft,MMI,ORG,,
Structure_Treatment_Final_Draft,Malcolm,PERSON,"X, Malcolm, 1925-1965",90
Structure_Treatment_Final_Draft,Muslim,NORP,African American Muslims,90
Structure_Treatment_Final_Draft,SNCC,ORG,,
Structure_Treatment_Final_Draft,Malcolm X. Mike Wallace,PERSON,,
Structure_Treatment_Final_Draft,Malcolm,PERSON,"X, Malcolm, 1925-1965",90
Structure_Treatment_Final_Draft,Africa,LOC,African American authors,90
Structure_Treatment_Final_Draft,Malcolm,PERSON,"X, Malcolm, 1925-1965",90
Structure_Treatment_Final_Draft,Alex Haley,PERSON,"Haley, Alex, 1921-1992",90
Structure_Treatment_Final_Draft,Malcolm X's,PERSON,,
Structure_Treatment_Final_Draft,Malcol m's,ORG,,
Structure_Treatment_Final_Draft,Selma,GPE,,
Structure_Treatment_Final_Draft,Malcolm experie,PERSON,,
Structure_Treatment_Final_Draft,France,GPE,"Berry, Mary Frances",90
Structure_Treatment_Final_Draft,French,NORP,,
Structure_Treatment_Final_Draft,harrass ed,PERSON,,
Structure_Treatment_Final_Draft,Malcolm Xis,PERSON,,
Structure_Treatment_Final_Draft,New York City,GPE,,
Structure_Treatment_Final_Draft,SNCC,ORG,,
Structure_Treatment_Final_Draft,Intervie,ORG,,
Structure_Treatment_Final_Draft,Malcolm X. Intervie,PERSON,,
Structure_Treatment_Final_Draft,Earl Grant,PERSON,,
Structure_Treatment_Final_Draft,Malcolm,PERSON,"X, Malcolm, 1925-1965",90
Structure_Treatment_Final_Draft,Malcolm,PERSON,"X, Malcolm, 1925-1965",90
Structure_Treatment_Final_Draft,Alex Haley,PERSON,"Haley, Alex, 1921-1992",90
Structure_Treatment_Final_Draft,Malcolm,PERSON,"X, Malcolm, 1925-1965",90
Structure_Treatment_Final_Draft,Betty,PERSON,"Shabazz, Betty",90
Structure_Treatment_Final_Draft,Malcolm,PERSON,"X, Malcolm, 1925-1965",90
Structure_Treatment_Final_Draft,Peter Bailey,PERSON,"Bailey, A. Peter",95
Structure_Treatment_Final_Draft,Malcolm,PERSON,"X, Malcolm, 1925-1965",90
Structure_Treatment_Final_Draft,Clevelan d Sellers,PERSON,,
Structure_Treatment_Final_Draft,ted SNCC,PERSON,,
Structure_Treatment_Final_Draft,Malcolm,PERSON,"X, Malcolm, 1925-1965",90
Structure_Treatment_Final_Draft,Harlem,LOC,,
Structure_Treatment_Final_Draft,Malcolm X,PERSON,"X, Malcolm, 1925-1965",90
Structure_Treatment_Final_Draft,The Goddam White Man,WORK_OF_ART,,
Structure_Treatment_Final_Draft,Congress,ORG,Congress of African Peoples,90
Structure_Treatment_Final_Draft,Adam Clayton Powell,PERSON,,
Structure_Treatment_Final_Draft,Presiden,GPE,Presidents--Election,90
Structure_Treatment_Final_Draft,Johnson,PERSON,"Johnson, Albert",90
Structure_Treatment_Final_Draft,Johnson,PERSON,"Johnson, Albert",90
Structure_Treatment_Final_Draft,the Voting Rights Act,LAW,Voting,90
Structure_Treatment_Final_Draft,VRA,ORG,,
Structure_Treatment_Final_Draft,Watts,LOC,,
Structure_Treatment_Final_Draft,Los Angeles,GPE,,
Structure_Treatment_Final_Draft,Johnson,PERSON,"Johnson, Albert",90
Structure_Treatment_Final_Draft,Martin Luther King,PERSON,"King, Martin Luther (Dr.), Jr., 1929-1968",90
Structure_Treatment_Final_Draft,Watts,LOC,,
Structure_Treatment_Final_Draft,Watts,LOC,,
Structure_Treatment_Final_Draft,Lowndes County,GPE,Lowndes County (Ala.),95
Structure_Treatment_Final_Draft,The Changing Face of SNCC SNCC,WORK_OF_ART,,
Structure_Treatment_Final_Draft,Lowndes County,GPE,Lowndes County (Ala.),95
Structure_Treatment_Final_Draft,Alabama,GPE,,
Structure_Treatment_Final_Draft,Watts,LOC,,
Structure_Treatment_Final_Draft,Stokely Carmichae,PERSON,,
Structure_Treatment_Final_Draft,John Hulett,PERSON,"Hulett, John",95
Structure_Treatment_Final_Draft,John Hulett,PERSON,"Hulett, John",95
Structure_Treatment_Final_Draft,first,ORDINAL,,
Structure_Treatment_Final_Draft,Lowndes County,GPE,Lowndes County (Ala.),95
Structure_Treatment_Final_Draft,the Lowndes County Christian Movement for Human Rights,ORG,,
Structure_Treatment_Final_Draft,the Lowndes County',GPE,,
Structure_Treatment_Final_Draft,118X,PERSON,,
Structure_Treatment_Final_Draft,the Voting Rights Act,LAW,Voting,90
Structure_Treatment_Final_Draft,first,ORDINAL,,
Structure_Treatment_Final_Draft,SNCC,ORG,,
Structure_Treatment_Final_Draft,Lowndes County,GPE,Lowndes County (Ala.),95
Structure_Treatment_Final_Draft,Robert Strickla nd,PERSON,,
Structure_Treatment_Final_Draft,SNCC,ORG,,
Structure_Treatment_Final_Draft,SNCC,ORG,,
Structure_Treatment_Final_Draft,SNCC,GPE,,
Structure_Treatment_Final_Draft,Haynevi,PERSON,,
Structure_Treatment_Final_Draft,Jonathan Daniels,PERSON,"Daniels, Jonathan Myrick, 1939-1965",90
Structure_Treatment_Final_Draft,Richard Morrisro,PERSON,,
Structure_Treatment_Final_Draft,Catholic,NORP,,
Structure_Treatment_Final_Draft,SNCC,ORG,,
Structure_Treatment_Final_Draft,thei,GPE,Anti-apartheid movements,90
Structure_Treatment_Final_Draft,thes,GPE,,
Structure_Treatment_Final_Draft,Stok,NORP,"Carmichael, Stokely, 1941-1998",90
Structure_Treatment_Final_Draft,Carm,GPE,"Carmichael, Stokely, 1941-1998",90
Structure_Treatment_Final_Draft,Dan,PERSON,"Jordan, Karriema",90
Structure_Treatment_Final_Draft,Mor risro e,PERSON,,
Structure_Treatment_Final_Draft,wiel ding,PERSON,,
Structure_Treatment_Final_Draft,ty sher,PERSON,,
Structure_Treatment_Final_Draft,Dan,PERSON,"Jordan, Karriema",90
Structure_Treatment_Final_Draft,Mor risro e,PERSON,,
Structure_Treatment_Final_Draft,Stok,NORP,"Carmichael, Stokely, 1941-1998",90
Structure_Treatment_Final_Draft,Stok,NORP,"Carmichael, Stokely, 1941-1998",90
Structure_Treatment_Final_Draft,Lown des Coun ty blac ks,PERSON,,
Structure_Treatment_Final_Draft,viol ence,PERSON,,
Structure_Treatment_Final_Draft,thes,GPE,,
Structure_Treatment_Final_Draft,offi,GPE,,
Structure_Treatment_Final_Draft,crat ic,PERSON,,
Structure_Treatment_Final_Draft,y offi,PERSON,,
Structure_Treatment_Final_Draft,tica l offi ce,PERSON,,
Structure_Treatment_Final_Draft,Alab,PERSON,,
Structure_Treatment_Final_Draft,offi,GPE,,
Structure_Treatment_Final_Draft,embl,PERSON,,
Structure_Treatment_Final_Draft,Dem,NORP,,
Structure_Treatment_Final_Draft,Geor ge Walword,PERSON,,
Structure_Treatment_Final_Draft,Wh ite Supr emac y,WORK_OF_ART,,
Structure_Treatment_Final_Draft,ge Alab,FAC,,
Structure_Treatment_Final_Draft,Governo,NORP,,
Structure_Treatment_Final_Draft,challeng ed,PERSON,,
Structure_Treatment_Final_Draft,Democra,WORK_OF_ART,"Democratic Party (Chicago, Ill.)",90
Structure_Treatment_Final_Draft,Alabama State,ORG,,
Structure_Treatment_Final_Draft,Richmond Flowers,PERSON,,
Structure_Treatment_Final_Draft,SNCC,ORG,,
Structure_Treatment_Final_Draft,Alabama,GPE,,
Structure_Treatment_Final_Draft,The Lowndes County Freedom Organiz,ORG,,
Structure_Treatment_Final_Draft,officia l,PERSON,,
Structure_Treatment_Final_Draft,Accordin g,PERSON,,
Structure_Treatment_Final_Draft,John Hulett,PERSON,"Hulett, John",95
Structure_Treatment_Final_Draft,the Alabama Democra tic Party,ORG,,
Structure_Treatment_Final_Draft,Lowndes County,GPE,Lowndes County (Ala.),95
Structure_Treatment_Final_Draft,20-25 miles,QUANTITY,,
Structure_Treatment_Final_Draft,first,ORDINAL,,
Structure_Treatment_Final_Draft,LCFO,ORG,,
Structure_Treatment_Final_Draft,SNCC,GPE,,
Structure_Treatment_Final_Draft,SNCC,GPE,,
Structure_Treatment_Final_Draft,Kingston Springs,GPE,,
Structure_Treatment_Final_Draft,Tenness,PERSON,Riots--Tennessee--Memphis,90
Structure_Treatment_Final_Draft,John Lewis,PERSON,"Lewis, John, 1940-2020",90
Structure_Treatment_Final_Draft,Carmichae,PERSON,"Carmichael, Stokely, 1941-1998",90
Structure_Treatment_Final_Draft,Bob Mants,PERSON,"Mants, Bob",95
Structure_Treatment_Final_Draft,SNCC,ORG,,
Structure_Treatment_Final_Draft,Lowndes County,GPE,Lowndes County (Ala.),95
Structure_Treatment_Final_Draft,John Hulett,PERSON,"Hulett, John",95
Structure_Treatment_Final_Draft,Lowndes County,GPE,Lowndes County (Ala.),95
Structure_Treatment_Final_Draft,Ruby Sales,PERSON,"Sales, Ruby",95
Structure_Treatment_Final_Draft,SNCC,ORG,,
Structure_Treatment_Final_Draft,Jonathan Daniels,PERSON,"Daniels, Jonathan Myrick, 1939-1965",90
Structure_Treatment_Final_Draft,Richmond Flowers,ORG,,
Structure_Treatment_Final_Draft,Alabama,GPE,,
Structure_Treatment_Final_Draft,Wallace,PERSON,"Wallace, George C. (George Corley), 1919-1998",90
Structure_Treatment_Final_Draft,Klan,LOC,Black power--California--Oakland,90
Structure_Treatment_Final_Draft,Lowndes County,GPE,Lowndes County (Ala.),95
Structure_Treatment_Final_Draft,Lurleen Wallace,PERSON,,
Structure_Treatment_Final_Draft,Lowndes County,GPE,Lowndes County (Ala.),95
Structure_Treatment_Final_Draft,"Black Power June 6, 1966",EVENT,Black power,90
Structure_Treatment_Final_Draft,James Meredith,PERSON,"Meredith, James, 1933-",95
Structure_Treatment_Final_Draft,Mississip,GPE,Civil rights demonstrations--Mississippi--Jackson,90
Structure_Treatment_Final_Draft,SNCC,ORG,,
Structure_Treatment_Final_Draft,Stokely Carmichae l,PERSON,,
Structure_Treatment_Final_Draft,Cleveland Sellers,ORG,"Sellers, Cleveland, 1944-",95
Structure_Treatment_Final_Draft,Noneth eless,ORG,,
Structure_Treatment_Final_Draft,Seller s,PRODUCT,,
Structure_Treatment_Final_Draft,the Deacon s for Defense,PRODUCT,,
Structure_Treatment_Final_Draft,King,PERSON,Cooking,90
Structure_Treatment_Final_Draft,the Deacon s',FAC,,
Structure_Treatment_Final_Draft,Vietnam,GPE,"Vietnam War, 1961-1975",90
Structure_Treatment_Final_Draft,Althoug h King,FAC,,
Structure_Treatment_Final_Draft,SCLC,NORP,,
Structure_Treatment_Final_Draft,Floyd McKiss,PERSON,,
Structure_Treatment_Final_Draft,SNCC,ORG,,
Structure_Treatment_Final_Draft,Roy Wilkin,ORG,,
Structure_Treatment_Final_Draft,NAACP,ORG,,
Structure_Treatment_Final_Draft,the Whitne y Young,PRODUCT,,
Structure_Treatment_Final_Draft,Urban League,ORG,,
Structure_Treatment_Final_Draft,Batesville,GPE,,
Structure_Treatment_Final_Draft,El Fondren,ORG,,
Structure_Treatment_Final_Draft,Stokely Carmichael,PERSON,"Carmichael, Stokely, 1941-1998",90
Structure_Treatment_Final_Draft,Greenwood,LOC,,
Structure_Treatment_Final_Draft,Mississippi,GPE,Civil rights demonstrations--Mississippi--Jackson,90
Structure_Treatment_Final_Draft,Black Power,WORK_OF_ART,Black power,100
Structure_Treatment_Final_Draft,Watts,LOC,,
Structure_Treatment_Final_Draft,California,GPE,Black Panther Party. Southern California Chapter,90
Structure_Treatment_Final_Draft,Ronald Reagan,PERSON,,
Structure_Treatment_Final_Draft,Republican,NORP,,
Structure_Treatment_Final_Draft,America,GPE,African American authors,90
Structure_Treatment_Final_Draft,Philadelphia,GPE,,
Structure_Treatment_Final_Draft,Mississippi,GPE,Civil rights demonstrations--Mississippi--Jackson,90
Structure_Treatment_Final_Draft,second,ORDINAL,,
Structure_Treatment_Final_Draft,Chaney,ORG,"Chaney, James Earl, 1943-1964",90
Structure_Treatment_Final_Draft,Goodman,ORG,"Goodman, Andrew, 1943-1964",90
Structure_Treatment_Final_Draft,Schwerner,ORG,"Schwerner, Michael Henry, 1939-1964",90
Structure_Treatment_Final_Draft,Canton,GPE,,
Structure_Treatment_Final_Draft,Mississippi,GPE,Civil rights demonstrations--Mississippi--Jackson,90
Structure_Treatment_Final_Draft,Jackson,GPE,Civil rights demonstrations--Mississippi--Jackson,90
Structure_Treatment_Final_Draft,Mississ,ORG,Civil rights demonstrations--Mississippi--Jackson,90
Structure_Treatment_Final_Draft,SNCC,ORG,,
Structure_Treatment_Final_Draft,ers,ORG,African American lawyers,90
Structure_Treatment_Final_Draft,Black Power,WORK_OF_ART,Black power,100
Structure_Treatment_Final_Draft,Jackson,NORP,Civil rights demonstrations--Mississippi--Jackson,90
Structure_Treatment_Final_Draft,State,ORG,Black nationalism--United States,90
Structure_Treatment_Final_Draft,King,PERSON,Cooking,90
Structure_Treatment_Final_Draft,SCLC,NORP,,
Structure_Treatment_Final_Draft,SNCC,ORG,,
Structure_Treatment_Final_Draft,Black Power,WORK_OF_ART,Black power,100
Structure_Treatment_Final_Draft,Floyd McKissi,PERSON,,
Structure_Treatment_Final_Draft,SNCC,ORG,,
Structure_Treatment_Final_Draft,radicali sm,PERSON,,
Structure_Treatment_Final_Draft,Stokely Carmich,PERSON,,
Structure_Treatment_Final_Draft,first,ORDINAL,,
Structure_Treatment_Final_Draft,SNCC,ORG,,
Structure_Treatment_Final_Draft,nationa,PERSON,Black Christian Nationalist Church,90
Structure_Treatment_Final_Draft,Clevelan d Sellers,PERSON,,
Structure_Treatment_Final_Draft,SNCC,ORG,,
Structure_Treatment_Final_Draft,Andrew Young,PERSON,"Young, Andrew, 1932-",95
Structure_Treatment_Final_Draft,SCLC,NORP,,
Structure_Treatment_Final_Draft,Clare Maier,PERSON,,
Structure_Treatment_Final_Draft,Black Power,ORG,Black power,100
Final_Draft,DeVinney/Blu e/Rosen,ORG,,
Final_Draft,PRIZE,ORG,,
Final_Draft,Emerging Voices,WORK_OF_ART,,
Final_Draft,first,ORDINAL,,
Final_Draft,America,GPE,African American authors,90
Final_Draft,fifty-four miles,QUANTITY,,
Final_Draft,Selma,GPE,,
Final_Draft,Alabama,GPE,,
Final_Draft,Montgomery,ORG,"Selma to Montgomery Rights March (1965 : Selma, Ala.)",90
Final_Draft,the Voting Rights Act,LAW,Voting,90
Final_Draft,United States,GPE,United States. Army,95
Final_Draft,Southern,NORP,Black Panther Party. Southern California Chapter,90
Final_Draft,Martin Luther King,PERSON,"King, Martin Luther (Dr.), Jr., 1929-1968",90
Final_Draft,Supreme Court,ORG,,
Final_Draft,the Voting Rights Act,LAW,Voting,90
Final_Draft,the Southern Christian Leadership Conference 2,ORG,Southern Christian Leadership Conference,95
Final_Draft,Johnson,PERSON,"Johnson, Albert",90
Final_Draft,America,GPE,African American authors,90
Final_Draft,Americans,NORP,African Americans--Education,90
Final_Draft,Movement,ORG,Anti-apartheid movements,90
Final_Draft,the Student Nonviolent Coordinating Committee,ORG,Student Nonviolent Coordinating Committee (U.S.),90
Final_Draft,SNCC,ORG,,
Final_Draft,American,NORP,African American authors,90
Final_Draft,Greenwood,GPE,,
Final_Draft,Mississippi,GPE,Civil rights demonstrations--Mississippi--Jackson,90
Final_Draft,Stokely Carmichael,PERSON,"Carmichael, Stokely, 1941-1998",90
Final_Draft,Black Power,WORK_OF_ART,Black power,100
Final_Draft,America,GPE,African American authors,90
Final_Draft,Black Power,ORG,Black power,100
Final_Draft,SNCC,ORG,,
Final_Draft,the American Dream,ORG,,
Final_Draft,American,NORP,African American authors,90
Final_Draft,SNCC,ORG,,
Final_Draft,Malcolm X's,PERSON,,
Final_Draft,SNCC,ORG,,
Final_Draft,Mississippi,GPE,Civil rights demonstrations--Mississippi--Jackson,90
Final_Draft,Africa,LOC,African American authors,90
Final_Draft,Malcolm X,PERSON,"X, Malcolm, 1925-1965",90
Final_Draft,Stokely Carmichael,PERSON,"Carmichael, Stokely, 1941-1998",90
Final_Draft,the Student Nonviolent Coordinating Committee,ORG,Student Nonviolent Coordinating Committee (U.S.),90
Final_Draft,Black Power,ORG,Black power,100
Final_Draft,James Meredith's,PERSON,,
Final_Draft,Against Fear,WORK_OF_ART,March Against Fear (1966),90
Final_Draft,Hartin Luther King,PERSON,,
Final_Draft,King,PERSON,Cooking,90
Final_Draft,Stokely Carmichael,PERSON,"Carmichael, Stokely, 1941-1998",90
Final_Draft,Against Fear,WORK_OF_ART,March Against Fear (1966),90
Final_Draft,Carmichael,GPE,"Carmichael, Stokely, 1941-1998",90
Final_Draft,SNCC,ORG,,
Final_Draft,Malcolm X,PERSON,"X, Malcolm, 1925-1965",90
Final_Draft,Malcolm,PERSON,"X, Malcolm, 1925-1965",90
Final_Draft,DRAMATIC STRUCTURE,ORG,,
Final_Draft,Washington,GPE,Anti-war demonstrations--Washington (D.C.),90
Final_Draft,Martin Luther King's,PERSON,,
Final_Draft,H. L. KING,PERSON,,
Final_Draft,NARRATOR,ORG,,
Final_Draft,Hartin Luther King,PERSON,,
Final_Draft,Jr,PERSON,,
Final_Draft,America,GPE,African American authors,90
Final_Draft,American,NORP,African American authors,90
Final_Draft,America,GPE,African American authors,90
Final_Draft,American,NORP,African American authors,90
Final_Draft,American,NORP,African American authors,90
Final_Draft,STANDARD,ORG,,
Final_Draft,first,ORDINAL,,
Final_Draft,SNCC,ORG,,
Final_Draft,Selma,ORG,,
Final_Draft,Crossfade,PRODUCT,,
Final_Draft,Marching on to Freedom Land,WORK_OF_ART,,
Final_Draft,Selma,NORP,,
Final_Draft,Montgomery,ORG,"Selma to Montgomery Rights March (1965 : Selma, Ala.)",90
Final_Draft,South,LOC,Anti-apartheid movements--South Africa,90
Final_Draft,jim crow,PERSON,,
Final_Draft,Emmett Till,PERSON,,
Final_Draft,Montgomery,GPE,"Selma to Montgomery Rights March (1965 : Selma, Ala.)",90
Final_Draft,Alabama,GPE,,
Final_Draft,Freedom Rides,ORG,,
Final_Draft,Birmingham,GPE,,
Final_Draft,Malcolm X.,PERSON,,
Final_Draft,Malcolm X,PERSON,"X, Malcolm, 1925-1965",90
Final_Draft,Malcolm X,PERSON,"X, Malcolm, 1925-1965",90
Final_Draft,Malcolm X,PERSON,"X, Malcolm, 1925-1965",90
Final_Draft,the Nation of Islam,ORG,,
Final_Draft,mid-'30,PERSON,,
Final_Draft,Elijah Muhammed,PERSON,,
Final_Draft,Malcolm X,PERSON,"X, Malcolm, 1925-1965",90
Final_Draft,the Nation of Islam,ORG,,
Final_Draft,Nation,ORG,Black Christian Nationalist Church,90
Final_Draft,Malcolm,PERSON,"X, Malcolm, 1925-1965",90
Final_Draft,EYES II 7 Teams,PRODUCT,,
Final_Draft,first,ORDINAL,,
Final_Draft,"Malcolm X?""J Sonia Sanchez",PERSON,,
Final_Draft,"""The Hate That Hate Produced",WORK_OF_ART,,
Final_Draft,Mike Wallace,PERSON,"Wallace, Mike, 1918-",95
Final_Draft,Louis Lomax,PERSON,,
Final_Draft,Malcolm X,PERSON,"X, Malcolm, 1925-1965",90
Final_Draft,the Nation of Islam,ORG,,
Final_Draft,Malcolm,PERSON,"X, Malcolm, 1925-1965",90
Final_Draft,Malcolm,PERSON,"X, Malcolm, 1925-1965",90
Final_Draft,Americans,NORP,African Americans--Education,90
Final_Draft,Malcolm X,PERSON,"X, Malcolm, 1925-1965",90
Final_Draft,EYES II,PRODUCT,,
Final_Draft,Malcolm,PERSON,"X, Malcolm, 1925-1965",90
Final_Draft,Howard University,ORG,Howard University,100
Final_Draft,Stokely Carmichael,PERSON,"Carmichael, Stokely, 1941-1998",90
Final_Draft,Cleve Sellers,PERSON,"Sellers, Cleveland, 1944-",90
Final_Draft,the Student Nonviolent Coordinating Committee,ORG,Student Nonviolent Coordinating Committee (U.S.),90
Final_Draft,Washington,GPE,Anti-war demonstrations--Washington (D.C.),90
Final_Draft,the Sixteenth Street Baptist Church,ORG,,
Final_Draft,Birmingham,GPE,,
Final_Draft,Malcolm,PERSON,"X, Malcolm, 1925-1965",90
Final_Draft,John F. Kennedy,PERSON,,
Final_Draft,Malcolm,PERSON,"X, Malcolm, 1925-1965",90
Final_Draft,the Nation of Islam,ORG,,
Final_Draft,Malcolm,PERSON,"X, Malcolm, 1925-1965",90
Final_Draft,Elijah Muhammed,PERSON,,
Final_Draft,Americans,NORP,African Americans--Education,90
Final_Draft,Malcolm X,PERSON,"X, Malcolm, 1925-1965",90
Final_Draft,the Organization of Afro-American Unity,ORG,Organization of Afro-American Unity,95
Final_Draft,Africa,LOC,African American authors,90
Final_Draft,African,NORP,African American authors,90
Final_Draft,America,GPE,African American authors,90
Final_Draft,Mecca,GPE,,
Final_Draft,the civil rights movement,ORG,,
Final_Draft,Harlem,GPE,,
Final_Draft,Rochester,GPE,,
Final_Draft,New York,GPE,"Bedford-Stuyvesant (New York, N.Y.)",90
Final_Draft,Patterson,PERSON,"Patterson, Floyd, 1935-2006",90
Final_Draft,New Jersey,GPE,Riots--New Jersey--Newark,90
Final_Draft,Mike Wallace,PERSON,"Wallace, Mike, 1918-",95
Final_Draft,Carmichael Floyd,PERSON,,
Final_Draft,Cleveland,GPE,Cleveland (Ohio)--Politics and government,90
Final_Draft,Maya Angelou,PERSON,,
Final_Draft,SNCC,GPE,,
Final_Draft,Malcolm X,PERSON,"X, Malcolm, 1925-1965",90
Final_Draft,Mississippi,GPE,Civil rights demonstrations--Mississippi--Jackson,90
Final_Draft,Freedom Summer,EVENT,,
Final_Draft,Goodman,ORG,"Goodman, Andrew, 1943-1964",90
Final_Draft,Schwerner,ORG,"Schwerner, Michael Henry, 1939-1964",90
Final_Draft,SNCC,ORG,,
Final_Draft,Cleveland Sellers,ORG,"Sellers, Cleveland, 1944-",95
Final_Draft,the Mississippi Freedom Democratic Party,ORG,Mississippi Freedom Democratic Party,95
Final_Draft,Mississippi,LOC,Civil rights demonstrations--Mississippi--Jackson,90
Final_Draft,the Democratic National Convention,ORG,,
Final_Draft,Atlantic City,GPE,"Democratic National Convention (1964 : Atlantic City, N.J.)",90
Final_Draft,the Democratic Party,ORG,,
Final_Draft,SNCC,ORG,,
Final_Draft,SNCC,ORG,,
Final_Draft,Jim Forman,PERSON,,
Final_Draft,Harry Belafonte,PERSON,"Belafonte, Harry, 1927-",95
Final_Draft,Belafonte,ORG,"Belafonte, Harry, 1927-",90
Final_Draft,Guinea,GPE,,
Final_Draft,John Lewis,PERSON,"Lewis, John, 1940-2020",90
Final_Draft,Donald Harris,PERSON,,
Final_Draft,Malcolm X,PERSON,"X, Malcolm, 1925-1965",90
Final_Draft,Nairobi,GPE,,
Final_Draft,Malcolm X,PERSON,"X, Malcolm, 1925-1965",90
Final_Draft,American,NORP,African American authors,90
Final_Draft,African,NORP,African American authors,90
Final_Draft,Malcolm X,PERSON,"X, Malcolm, 1925-1965",90
Final_Draft,SNCC,GPE,,
Final_Draft,Malcolm X,PERSON,"X, Malcolm, 1925-1965",90
Final_Draft,SNCC,ORG,,
Final_Draft,Malcolm X,PERSON,"X, Malcolm, 1925-1965",90
Final_Draft,HFDP,ORG,,
Final_Draft,Fannie Lou Hamer,PERSON,"Hamer, Fannie Lou, 1917-1977",90
Final_Draft,Harlem,LOC,,
Final_Draft,SNCC,ORG,,
Final_Draft,McComb,ORG,,
Final_Draft,Selma,GPE,,
Final_Draft,Alabama,GPE,,
Final_Draft,Malcolm Xis,PERSON,,
Final_Draft,New York City,GPE,,
Final_Draft,SNCC,ORG,,
Final_Draft,John Lewis Cleveland,PERSON,,
Final_Draft,Harry Belafonte,PERSON,"Belafonte, Harry, 1927-",95
Final_Draft,Hollis Watkins,PERSON,,
Final_Draft,Marching on to Freedom Land,WORK_OF_ART,,
Final_Draft,Hartin Luther King,PERSON,,
Final_Draft,SCLC,NORP,,
Final_Draft,SNCC,ORG,,
Final_Draft,SNCC,GPE,,
Final_Draft,SCLC,NORP,,
Final_Draft,Selma,NORP,,
Final_Draft,SNCC,ORG,,
Final_Draft,John Lewis,PERSON,"Lewis, John, 1940-2020",90
Final_Draft,SNCC,ORG,,
Final_Draft,John,PERSON,"Brown, John O.",90
Final_Draft,SNCC,ORG,,
Final_Draft,SNCC,ORG,,
Final_Draft,Stokely Carmichael,PERSON,"Carmichael, Stokely, 1941-1998",90
Final_Draft,Lowndes County,GPE,Lowndes County (Ala.),95
Final_Draft,Alabama,GPE,,
Final_Draft,Cleveland Sellers,ORG,"Sellers, Cleveland, 1944-",95
Final_Draft,Mississippi,GPE,Civil rights demonstrations--Mississippi--Jackson,90
Final_Draft,Carmichael,GPE,"Carmichael, Stokely, 1941-1998",90
Final_Draft,Lowndes County,GPE,Lowndes County (Ala.),95
Final_Draft,John Lewis,PERSON,"Lewis, John, 1940-2020",90
Final_Draft,Selma,GPE,,
Final_Draft,Mississippi,GPE,Civil rights demonstrations--Mississippi--Jackson,90
Final_Draft,African,NORP,African American authors,90
Final_Draft,SNCC,ORG,,
Final_Draft,Africa,LOC,African American authors,90
Final_Draft,New York City,GPE,,
Final_Draft,the South African Counsel General,ORG,,
Final_Draft,John Lewis,PERSON,"Lewis, John, 1940-2020",90
Final_Draft,Harry Belafonte,PERSON,"Belafonte, Harry, 1927-",95
Final_Draft,Sidney Poitier,ORG,,
Final_Draft,King,PERSON,Cooking,90
Final_Draft,America,GPE,African American authors,90
Final_Draft,Vietnam,GPE,"Vietnam War, 1961-1975",90
Final_Draft,Johnson,PERSON,"Johnson, Albert",90
Final_Draft,the Voting Rights Act,LAW,Voting,90
Final_Draft,LBJ,ORG,,
Final_Draft,VRA,ORG,,
Final_Draft,Watts,LOC,,
Final_Draft,Los Angeles,GPE,,
Final_Draft,Johnson,PERSON,"Johnson, Albert",90
Final_Draft,Johnson,PERSON,"Johnson, Albert",90
Final_Draft,Johnson,PERSON,"Johnson, Albert",90
Final_Draft,the Vietnam war,EVENT,,
Final_Draft,Watts,GPE,,
Final_Draft,Andrew Young,PERSON,"Young, Andrew, 1932-",95
Final_Draft,John Lewis Cleveland,PERSON,,
Final_Draft,Carmichael Harry Belafonte,PERSON,,
Final_Draft,The Changing Face of SNCC Gloria House,WORK_OF_ART,,
Final_Draft,Haynevill e,GPE,,
Final_Draft,Alabama,GPE,,
Final_Draft,Watts,LOC,,
Final_Draft,Lowndes County,GPE,Lowndes County (Ala.),95
Final_Draft,Stokely Carmichae,PERSON,,
Final_Draft,John Hulett,PERSON,"Hulett, John",95
Final_Draft,John Hulett,PERSON,"Hulett, John",95
Final_Draft,first,ORDINAL,,
Final_Draft,Lowndes County,GPE,Lowndes County (Ala.),95
Final_Draft,the Lowndes County Christian Movement for Human Rights,ORG,,
Final_Draft,80%,PERCENT,,
Final_Draft,the Lowndes County's,GPE,,
Final_Draft,118%,PERCENT,,
Final_Draft,the Voting Rights Act,LAW,Voting,90
Final_Draft,first,ORDINAL,,
Final_Draft,SNCC,ORG,,
Final_Draft,Lowndes County,GPE,Lowndes County (Ala.),95
Final_Draft,Robert Strickland,PERSON,,
Final_Draft,Carmichae l ',PERSON,,
Final_Draft,SNCC,ORG,,
Final_Draft,Gloria House,FAC,,
Final_Draft,Hayneville,GPE,,
Final_Draft,Jonathan Daniels,PERSON,"Daniels, Jonathan Myrick, 1939-1965",90
Final_Draft,Catholic,NORP,,
Final_Draft,Richard Morrisroe,PERSON,,
Final_Draft,Lowndes County,GPE,Lowndes County (Ala.),95
Final_Draft,Daniels,GPE,"Daniels, Jonathan Myrick, 1939-1965",90
Final_Draft,Morrisroe,PERSON,,
Final_Draft,Morrisroe,PERSON,,
Final_Draft,Gloria House,ORG,,
Final_Draft,Stokley Carmichae,PERSON,,
Final_Draft,Daniels,PERSON,"Daniels, Jonathan Myrick, 1939-1965",90
Final_Draft,Cleve Sellers,PERSON,"Sellers, Cleveland, 1944-",90
Final_Draft,Lowndes County,GPE,Lowndes County (Ala.),95
Final_Draft,a Democratic Party,ORG,,
Final_Draft,second,ORDINAL,,
Final_Draft,the Democrati c Party,ORG,,
Final_Draft,Alabama,GPE,,
Final_Draft,White Supremacy,WORK_OF_ART,,
Final_Draft,George Wallace,PERSON,"Wallace, George C. (George Corley), 1919-1998",90
Final_Draft,Hore,PERSON,,
Final_Draft,SNCC,ORG,,
Final_Draft,Alabama,GPE,,
Final_Draft,The Lowndes County Freedom Organization,ORG,Lowndes County Freedom Organization,95
Final_Draft,John Hulett,PERSON,"Hulett, John",95
Final_Draft,the Alabama Democratic Party,ORG,,
Final_Draft,Lowndes County,GPE,Lowndes County (Ala.),95
Final_Draft,20-25 miles,QUANTITY,,
Final_Draft,first,ORDINAL,,
Final_Draft,LCFO,PERSON,,
Final_Draft,SNCC,ORG,,
Final_Draft,SNCC,ORG,,
Final_Draft,Kingston Springs,GPE,,
Final_Draft,Nashville,GPE,,
Final_Draft,Tennessee,GPE,Riots--Tennessee--Memphis,90
Final_Draft,John Lewis,PERSON,"Lewis, John, 1940-2020",90
Final_Draft,Stokely Carmichael,PERSON,"Carmichael, Stokely, 1941-1998",90
Final_Draft,Lewis,PERSON,"Lewis, John, 1940-2020",90
Final_Draft,Selma,GPE,,
Final_Draft,SNCC,ORG,,
Final_Draft,Black Con- sciousness,PRODUCT,,
Final_Draft,American,NORP,African American authors,90
Final_Draft,Lowndes County,GPE,Lowndes County (Ala.),95
Final_Draft,SNCC,ORG,,
Final_Draft,Carmichael,PERSON,"Carmichael, Stokely, 1941-1998",90
Final_Draft,Lowndes County,GPE,Lowndes County (Ala.),95
Final_Draft,SNCC,ORG,,
Final_Draft,Black Consciousness,ORG,Black Consciousness (philosophy),90
Final_Draft,Cleveland Sellers,ORG,"Sellers, Cleveland, 1944-",95
Final_Draft,Mississippi,GPE,Civil rights demonstrations--Mississippi--Jackson,90
Final_Draft,John Lewis,PERSON,"Lewis, John, 1940-2020",90
Final_Draft,Carmichael Bob Mants John Hulett Gloria House,PERSON,,
Final_Draft,Black Power,EVENT,Black power,100
Final_Draft,James Meredith,PERSON,"Meredith, James, 1933-",95
Final_Draft,Mississippi,GPE,Civil rights demonstrations--Mississippi--Jackson,90
Final_Draft,SNCC,ORG,,
Final_Draft,Stokely Carmichael,PERSON,"Carmichael, Stokely, 1941-1998",90
Final_Draft,Cleveland Sellers,ORG,"Sellers, Cleveland, 1944-",95
Final_Draft,Carmichael,GPE,"Carmichael, Stokely, 1941-1998",90
Final_Draft,Sellers,ORG,"Sellers, Cleveland, 1944-",90
Final_Draft,the Deacons for Defense,ORG,,
Final_Draft,King,PERSON,Cooking,90
Final_Draft,Deacons,PERSON,,
Final_Draft,Vietnam,GPE,"Vietnam War, 1961-1975",90
Final_Draft,Floyd HcKissick,PERSON,,
Final_Draft,SNCC,ORG,,
Final_Draft,Roy Wilkins,PERSON,"Wilkins, Roy, 1901-1981",90
Final_Draft,NAACP,ORG,,
Final_Draft,"the Whitney Young, Jr. (Urban League",ORG,,
Final_Draft,HcKissick,ORG,,
Final_Draft,Batesville,GPE,,
Final_Draft,El Fondren,ORG,,
Final_Draft,Stokely Carmichael,PERSON,"Carmichael, Stokely, 1941-1998",90
Final_Draft,Greenwood,LOC,,
Final_Draft,Mississippi,GPE,Civil rights demonstrations--Mississippi--Jackson,90
Final_Draft,Black Power,WORK_OF_ART,Black power,100
Final_Draft,Watts,LOC,,
Final_Draft,California,GPE,Black Panther Party. Southern California Chapter,90
Final_Draft,Ronald Reagan,PERSON,,
Final_Draft,Republican,NORP,,
Final_Draft,America,GPE,African American authors,90
Final_Draft,Philadelphia,GPE,,
Final_Draft,Mississippi,GPE,Civil rights demonstrations--Mississippi--Jackson,90
Final_Draft,second,ORDINAL,,
Final_Draft,Chaney,ORG,"Chaney, James Earl, 1943-1964",90
Final_Draft,Goodman,ORG,"Goodman, Andrew, 1943-1964",90
Final_Draft,Schwerner,ORG,"Schwerner, Michael Henry, 1939-1964",90
Final_Draft,Canton,GPE,,
Final_Draft,Mississippi,GPE,Civil rights demonstrations--Mississippi--Jackson,90
Final_Draft,The March Against Fear,WORK_OF_ART,,
Final_Draft,Jackson,GPE,Civil rights demonstrations--Mississippi--Jackson,90
Final_Draft,Mississippi,GPE,Civil rights demonstrations--Mississippi--Jackson,90
Final_Draft,SNCC,ORG,,
Final_Draft,Black Power,WORK_OF_ART,Black power,100
Final_Draft,Jackson,NORP,Civil rights demonstrations--Mississippi--Jackson,90
Final_Draft,State,ORG,Black nationalism--United States,90
Final_Draft,Capitol,FAC,,
Final_Draft,King,PERSON,Cooking,90
Final_Draft,Carmichael,PERSON,"Carmichael, Stokely, 1941-1998",90
Final_Draft,SCLC,NORP,,
Final_Draft,SNCC,ORG,,
Final_Draft,Black Power,WORK_OF_ART,Black power,100
Final_Draft,Floyd McKissick,PERSON,"McKissick, Floyd B. (Floyd Bixler), 1922-",90
Final_Draft,Andrew Young,PERSON,"Young, Andrew, 1932-",95
Final_Draft,Willie Ricks,PERSON,,
Final_Draft,Hollis Watkins,PERSON,,
Final_Draft,John Lewis John Doar,PERSON,,
